# Exported from 3D Builder
mtllib Circle.mtl

o Object.1
v -31.755005 19.031157 11.659201
v -31.798607 19.031157 9.994102
v -31.755005 19.031157 8.329102
v -31.624306 19.031157 6.668503
v -31.406906 19.031157 5.017101
v -31.103302 19.031157 3.379301
v -30.714508 19.031157 1.759602
v -29.685402 19.031157 -1.407598
v -30.241402 19.031157 0.162502
v -31.624306 19.031157 13.319803
v -25.722305 19.031157 -8.706398
v -26.665703 19.031157 -7.333898
v -27.536003 19.031157 -5.913698
v -28.330902 19.031157 -4.449898
v -29.048004 19.031157 -2.946499
v -31.103302 19.031157 16.609003
v -31.406906 19.031157 14.971201
v -27.536003 19.031157 25.902002
v -28.330902 19.031157 24.438204
v -29.048004 19.031157 22.934801
v -29.685402 19.031157 21.395903
v -30.241402 19.031157 19.825804
v -30.714508 19.031157 18.228701
v -24.708206 17.422504 30.016401
v -25.722305 17.422504 28.695002
v -24.468704 19.031157 28.428503
v -24.708206 19.031157 30.016401
v -25.722305 19.031157 28.695002
v -26.665703 19.031157 27.322203
v -27.536003 17.422504 25.902002
v -26.665703 17.422504 27.322203
v -24.917702 17.422504 11.301203
v -28.330902 17.422504 24.438204
v 29.083195 19.031157 -2.946499
v 28.366095 19.031157 -4.449898
v 27.571196 19.031157 -5.913698
v 21.480896 19.031157 -2.986399
v 26.700895 19.031157 -7.333898
v 25.757496 19.031157 -8.706398
v 24.743496 19.031157 -10.027798
v 23.661695 19.031157 -11.294398
v 25.757496 17.422504 -8.706398
v 24.743496 17.422504 -10.027798
v 22.515095 17.422504 -12.502808
v 23.661695 17.422504 -11.294398
v 21.306795 19.031157 -13.649198
v 22.515095 19.031157 -12.502808
v 29.720596 19.031157 -1.407598
v 30.276596 19.031157 0.162502
v 28.366095 17.422504 -4.449799
v 27.571196 17.422504 -5.913698
v 21.306795 17.422504 -13.649198
v 20.040195 17.422504 -14.730888
v 18.718695 17.422504 -15.745148
v 17.345997 17.422504 -16.688318
v 14.461895 17.422504 -18.354137
v 15.925697 17.422504 -17.558588
v 14.461895 19.031157 -18.354137
v 15.925697 19.031157 -17.559498
v 17.345997 19.031157 -16.688318
v 18.718695 19.031157 -15.745148
v 20.040195 19.031157 -14.730888
v 30.749695 19.031157 1.759602
v 31.790295 19.031157 11.659201
v 31.833796 19.031157 9.994102
v 31.790295 19.031157 8.329102
v 31.659496 19.031157 6.668503
v 31.442095 19.031157 5.017101
v 31.138596 19.031157 3.379301
v 31.138596 19.031157 16.609003
v 31.442095 19.031157 14.971201
v 31.659595 19.031157 13.319803
v 26.700895 17.422504 -7.333898
v 12.958397 19.031157 -19.071318
v 12.958397 17.422504 -19.071318
v 11.419495 17.422504 -19.708307
v 9.849396 17.422504 -20.264177
v 18.772396 17.422504 -6.785098
v 6.632595 17.422504 -21.126253
v 8.252197 17.422504 -20.737127
v 18.573595 17.422504 -6.712698
v 10.724995 17.422504 -15.902508
v 17.345997 17.422504 36.677101
v 15.925697 17.422504 37.547302
v 12.958397 17.422504 39.059204
v 14.461895 17.422504 38.342102
v 25.757496 19.031157 28.695002
v 24.743496 19.031157 30.016401
v 21.306795 17.422504 33.637802
v 20.040195 17.422504 34.719604
v -3.308105 17.422504 41.635605
v -1.647503 17.422504 41.766304
v 0.017597 17.422504 41.809799
v 11.419495 17.422504 39.696701
v 9.849396 17.422504 40.252701
v 8.252197 17.422504 40.725800
v 6.632595 17.422504 41.114601
v 3.343296 17.422504 41.635605
v 4.994694 17.422504 41.418205
v 26.700895 19.031157 27.322203
v 27.571196 19.031157 25.902002
v 28.366095 19.031157 24.438204
v 29.720596 19.031157 21.395903
v 29.083195 19.031157 22.934801
v 1.682697 17.422504 41.766304
v 18.718695 17.422504 35.733604
v 30.276596 19.031157 19.825804
v -4.959503 17.422504 41.418205
v -6.597404 17.422504 41.114601
v 4.994694 17.422504 -21.429710
v 15.998894 17.422504 -9.426098
v 7.636395 17.422504 -17.184029
v 13.266796 17.422504 -11.842148
v 7.123695 19.031157 -17.670429
v 3.343296 17.422504 -21.647503
v -22.389603 19.031157 -1.506397
v -24.708206 19.031157 -10.027798
v -19.748207 19.031157 -8.965698
v -17.310707 17.422504 -16.688318
v -20.005005 17.422504 -14.730888
v -18.683502 17.422504 -15.745148
v -23.293503 17.422504 1.046402
v -21.271606 17.422504 -13.649198
v -23.626503 19.031157 31.283003
v -23.626503 17.422504 31.283003
v 30.749695 19.031157 18.228701
v 26.882095 19.031157 11.081301
v 27.457296 19.031157 12.705801
v 20.605595 17.422504 24.322802
v -14.426605 19.031157 38.342102
v -12.923206 19.031157 39.059204
v -15.890503 19.031157 37.547302
v -17.310707 19.031157 36.677101
v -18.683502 19.031157 35.733604
v -21.271606 19.031157 33.637802
v -20.005005 19.031157 34.719604
v -22.479805 17.422504 32.491302
v -21.271606 17.422504 33.637802
v -17.310707 17.422504 36.677101
v -18.683502 17.422504 35.733604
v -20.005005 17.422504 34.719604
v -15.890503 17.422504 37.547302
v -14.426605 17.422504 38.342102
v -12.923206 17.422504 39.059204
v -11.384304 17.422504 39.696701
v -9.814106 17.422504 40.252701
v -8.217003 17.422504 40.725800
v -22.479805 19.031157 32.491302
v 2.624397 19.031157 35.031502
v 13.287395 17.422504 -11.202098
v -4.959503 17.422504 -21.429710
v -3.308105 17.422504 -21.647503
v -1.647503 17.422504 -21.777811
v 0.017597 17.422504 -21.821560
v 1.682697 17.422504 -21.777811
v 10.167496 17.422504 -12.897698
v 10.167496 17.422504 -12.897708
v 3.886597 19.031157 -15.814978
v 5.489494 19.031157 -15.050388
v 6.768696 19.031157 -14.440178
v 7.188095 19.031157 -14.240118
v -6.597404 17.422504 -21.126253
v 10.185497 17.422504 -12.810318
v 13.216896 17.422504 -11.190698
v 13.278194 17.422504 -11.153098
v 14.694294 19.031157 -10.205598
v 14.701794 17.422504 -10.200398
v -14.426605 17.422504 -18.354137
v -15.890503 17.422504 -17.558588
v -22.796608 19.031157 -0.154198
v -17.841301 19.031157 -9.424798
v -18.567802 19.031157 -8.086698
v -12.923206 17.422504 -19.071318
v -22.781906 19.031157 28.047003
v -22.789604 19.031157 27.988901
v -23.188507 19.031157 24.959002
v -23.499008 19.031157 20.081003
v -23.505302 19.031157 20.047102
v -23.502907 19.031157 20.060202
v -24.406303 19.031157 15.185602
v -22.338905 19.031157 26.340403
v -22.349007 19.031157 26.285902
v -23.893303 17.422504 17.953802
v 25.248695 17.422504 8.164902
v 26.023695 19.031157 11.393103
v 26.023195 19.031157 11.390902
v 24.446196 19.031157 4.822702
v 26.768896 19.031157 14.496901
v 26.000095 19.031157 11.294802
v 26.000095 19.031157 11.294802
v 24.611095 17.422504 5.509502
v 25.780495 19.031157 13.023603
v 25.780495 19.031157 13.023802
v 25.742296 19.031157 13.115904
v -18.511604 19.031157 26.994501
v -19.931908 19.031157 25.781401
v -19.594307 19.031157 25.794104
v -18.402405 19.031157 26.925203
v -17.070305 19.031157 28.189302
v -21.010406 19.031157 24.450201
v -20.996605 19.031157 24.463301
v -11.384304 17.422504 -19.708307
v -8.217003 17.422504 -20.737127
v -9.814106 17.422504 -20.264177
v 0.017597 19.031157 -14.974328
v 4.424694 19.031157 -15.090108
v 0.196297 19.031157 -14.969638
v 7.090294 17.422504 -14.249187
v 3.720295 19.031157 -14.693618
v 3.908997 19.031157 -14.668748
v 3.924297 19.031157 -14.666718
v 7.041695 17.422504 -13.988368
v 6.225395 19.031157 -14.184488
v 10.153896 17.422504 -12.824138
v 10.153797 17.422504 -12.824148
v 10.153797 17.422504 -12.824148
v -15.407204 19.031157 -10.012398
v -16.117805 17.422504 -9.263498
v -18.538406 17.422504 -6.712698
v -14.987701 19.031157 -10.176198
v -15.078407 19.031157 -10.090098
v -16.690903 19.031157 -8.560198
v -16.670105 19.031157 -8.579898
v -16.813904 19.031157 -8.443398
v -22.793304 19.031157 20.150202
v -22.905403 19.031157 19.915201
v -22.905403 19.031157 19.915201
v -22.905403 19.031157 19.915201
v -20.650002 19.031157 24.240702
v -20.609604 19.031157 24.315104
v -20.591408 19.031157 24.348703
v 25.003096 17.422504 9.383402
v 24.902296 19.031157 13.235903
v 24.902296 19.031157 13.236002
v 24.902296 19.031157 13.236002
v 24.943695 19.031157 11.654501
v 24.943695 19.031157 11.654501
v 24.943796 19.031157 11.652201
v 24.952995 19.031157 11.301203
v 24.974796 17.422504 9.524101
v 24.974796 17.422504 9.523903
v 24.445196 19.031157 4.823002
v 24.592695 17.422504 5.618702
v -23.729904 17.422504 17.710302
v -23.700203 17.422504 17.794001
v -22.892006 19.031157 19.911901
v -22.892006 19.031157 19.911901
v -22.892006 19.031157 19.911901
v -22.892006 19.031157 19.911901
v -20.923607 19.031157 -3.604498
v -20.972801 19.031157 -3.524298
v 24.074596 19.031157 16.665403
v -18.258606 19.031157 26.996702
v -19.509003 19.031157 25.679201
v -19.509003 19.031157 25.679201
v -19.433502 19.031157 25.758802
v -19.570107 19.031157 25.614801
v -18.338707 19.031157 26.912302
v -18.338707 19.031157 26.912302
v -18.337708 19.031157 26.913301
v -18.340706 19.031157 26.910303
v -18.340706 19.031157 26.910303
v -18.538406 19.031157 26.701902
v -19.438805 19.031157 25.640902
v -19.424904 19.031157 25.658903
v -19.424904 19.031157 25.659002
v -19.424904 19.031157 25.658903
v -19.357605 19.031157 25.746603
v -19.387306 19.031157 25.707903
v -19.420807 19.031157 25.664301
v -19.476105 19.031157 25.592203
v -19.476204 19.031157 25.592203
v -20.455704 19.031157 24.315802
v -19.358101 19.031157 25.742201
v -19.358101 19.031157 25.742102
v 24.466595 19.031157 15.050600
v 24.465395 19.031157 15.057203
v 24.465296 19.031157 15.057302
v 24.441595 19.031157 15.185701
v 24.477896 19.031157 14.989603
v 24.782196 19.031157 13.347902
v 24.780695 19.031157 13.355600
v 24.413195 19.031157 15.303904
v 24.762796 19.031157 13.269701
v 24.762796 19.031157 13.269701
v 24.762796 19.031157 13.269701
v 24.751495 19.031157 13.355303
v 24.751495 19.031157 13.355303
v 24.751495 19.031157 13.355303
v 24.751896 19.031157 13.352404
v 24.752396 19.031157 13.348902
v 24.750595 19.031157 13.362703
v 24.924795 19.031157 11.659002
v 24.924795 19.031157 11.659002
v 24.924795 19.031157 11.659002
v 24.924995 19.031157 11.656801
v 24.924995 19.031157 11.656801
v 24.933096 19.031157 11.553102
v 24.933096 19.031157 11.553202
v 24.935795 19.031157 11.518801
v -20.504807 19.031157 24.202902
v -20.453606 19.031157 24.277304
v -20.453705 19.031157 24.277304
v -20.441803 19.031157 24.294500
v -20.431305 19.031157 24.309900
v -20.431305 19.031157 24.309900
v -20.421707 19.031157 24.323801
v -14.686607 19.031157 -10.184598
v -14.686607 19.031157 -10.184598
v -14.686302 19.031157 -10.184798
v -14.683205 19.031157 -10.187099
v -14.659203 19.031157 -10.205598
v -16.153305 17.422504 -9.058898
v -16.165108 17.422504 -9.009198
v -14.613701 19.031157 -10.236898
v -11.626606 19.031157 -12.085608
v -12.014706 19.031157 -11.874688
v -12.011303 19.031157 -11.876558
v 7.036194 17.422504 -13.958618
v 7.036194 17.422504 -13.958628
v 6.561295 19.031157 -14.099268
v 29.720596 17.422504 -1.407598
v 30.276596 17.422504 0.162502
v 24.743496 17.422504 30.016401
v 23.661695 17.422504 31.283003
v 23.661695 19.031157 31.283003
v -11.384304 19.031157 39.696701
v 22.515095 19.031157 32.491302
v 22.515095 17.422504 32.491302
v 21.306795 19.031157 33.637802
v 20.040195 19.031157 34.719604
v -8.217003 19.031157 40.725800
v -6.597404 19.031157 41.114601
v 18.718695 19.031157 35.733604
v 6.632595 19.031157 -21.126253
v -20.005005 19.031157 -14.730888
v 8.252197 19.031157 -20.737127
v -21.271606 19.031157 -13.649198
v 9.849396 19.031157 -20.264177
v -22.479805 19.031157 -12.502808
v 11.419495 19.031157 -19.708307
v -23.626503 19.031157 -11.294398
v -23.626503 17.422504 -11.294398
v -22.479805 17.422504 -12.502808
v -29.048004 17.422504 22.934801
v -25.722305 17.422504 -8.706398
v -24.708206 17.422504 -10.027798
v -30.241402 17.422504 19.825804
v -29.685402 17.422504 21.395903
v -18.683502 19.031157 -15.745148
v -9.814106 19.031157 40.252701
v 29.083195 17.422504 -2.946499
v 25.757496 17.422504 28.695002
v -31.798607 17.422504 9.994102
v 17.345997 19.031157 36.677101
v -4.959503 19.031157 41.418205
v -3.308105 19.031157 41.635506
v 15.925697 19.031157 37.547302
v -1.647503 19.031157 41.766205
v 14.461895 19.031157 38.342102
v -29.685402 17.422504 -1.407598
v -30.241402 17.422504 0.162502
v -30.714508 17.422504 1.759602
v -31.103302 17.422504 3.379301
v -31.624306 17.422504 6.668503
v -31.406906 17.422504 5.017101
v -31.755005 17.422504 8.329102
v -31.755005 17.422504 11.659201
v -29.048004 17.422504 -2.946499
v -31.624306 17.422504 13.319803
v 0.017597 19.031157 41.809799
v 1.682697 19.031157 41.766205
v 12.958397 19.031157 39.059204
v 11.419495 19.031157 39.696701
v 9.849396 19.031157 40.252701
v 8.252197 19.031157 40.725800
v 6.632595 19.031157 41.114601
v 4.994694 19.031157 41.418205
v 3.343296 19.031157 41.635506
v -28.330902 17.422504 -4.449799
v -27.536003 17.422504 -5.913698
v -31.406906 17.422504 14.971201
v 30.749695 17.422504 1.759602
v 31.138596 17.422504 3.379301
v 26.700895 17.422504 27.322203
v 28.366095 17.422504 24.438204
v 27.571196 17.422504 25.902002
v 31.442095 17.422504 5.017101
v 31.659496 17.422504 6.668503
v 29.083195 17.422504 22.934801
v 29.720596 17.422504 21.395903
v -12.923206 19.031157 -19.071318
v -14.426605 19.031157 -18.354137
v 0.017597 19.031157 -21.821560
v -1.647503 19.031157 -21.777811
v -3.308105 19.031157 -21.647503
v -11.384304 19.031157 -19.708307
v -9.814106 19.031157 -20.264177
v -4.959503 19.031157 -21.429710
v -6.597404 19.031157 -21.126253
v -8.217003 19.031157 -20.737127
v 1.682697 19.031157 -21.777811
v 3.343296 19.031157 -21.647503
v -15.890503 19.031157 -17.559498
v -17.310707 19.031157 -16.688318
v 4.994694 19.031157 -21.429710
v 31.790295 17.422504 11.659201
v 31.833796 17.422504 9.994102
v 31.790295 17.422504 8.329102
v -31.103302 17.422504 16.609003
v -30.714508 17.422504 18.228701
v -26.665703 17.422504 -7.333898
v 30.276596 17.422504 19.825804
v 30.749695 17.422504 18.228701
v 31.442095 17.422504 14.971300
v 31.138596 17.422504 16.609003
v 31.659595 17.422504 13.319803
v -24.952003 17.422504 9.994501
v -24.952003 19.031157 9.994501
v 22.828396 17.422504 -0.161299
v 22.828396 19.031157 -0.161299
v 22.265596 17.422504 -1.341099
v 22.265596 19.031157 -1.341099
v 21.641796 17.422504 -2.489899
v 21.641796 19.031157 -2.489899
v 20.958796 17.422504 -3.604498
v 20.958796 19.031157 -3.604498
v 20.218395 17.422504 -4.681599
v 20.218395 19.031157 -4.681599
v 18.573595 19.031157 -6.712698
v 19.422596 19.031157 -5.718597
v 19.422596 17.422504 -5.718597
v 13.616997 17.422504 30.935102
v 13.616997 19.031157 30.935102
v 14.694294 17.422504 30.194700
v 14.694294 19.031157 30.194700
v 12.502396 17.422504 31.618101
v 12.502396 19.031157 31.618101
v 11.353596 19.031157 32.241798
v 11.353596 17.422504 32.241798
v 17.673794 17.422504 -7.660998
v 17.673794 19.031157 -7.660998
v -23.293503 19.031157 1.046402
v -23.729904 17.422504 2.278702
v -23.729904 19.031157 2.278702
v -24.101105 17.422504 3.532103
v -24.101105 19.031157 3.532103
v -24.644501 19.031157 6.088503
v -24.644501 17.422504 6.088503
v -24.815201 17.422504 7.384502
v -24.815201 19.031157 7.384502
v -24.917702 17.422504 8.687702
v -24.917702 19.031157 8.687702
v -24.917702 19.031157 11.301203
v -24.815201 17.422504 12.604403
v -24.815201 19.031157 12.604403
v 23.764996 17.422504 2.278702
v 23.764996 19.031157 2.278702
v 23.328695 17.422504 1.046402
v 23.328695 19.031157 1.046402
v 19.422596 17.422504 25.707804
v 19.422596 19.031157 25.707804
v 18.573595 17.422504 26.701902
v 18.573595 19.031157 26.701902
v 17.673794 19.031157 27.650103
v 17.673794 17.422504 27.650103
v 16.725494 17.422504 28.549902
v 16.725494 19.031157 28.549902
v 15.731396 17.422504 29.398901
v 15.731396 19.031157 29.398901
v -6.445004 17.422504 34.112503
v -6.445004 19.031157 34.112503
v -5.173904 17.422504 34.417702
v -5.173904 19.031157 34.417702
v -3.888504 17.422504 34.655899
v -3.888504 19.031157 34.655899
v -2.592403 17.422504 34.826500
v -2.592403 19.031157 34.826500
v 0.017597 17.422504 34.963303
v 0.017597 19.031157 34.963303
v 1.324394 17.422504 34.929100
v 1.324394 19.031157 34.929100
v 8.965897 17.422504 33.304901
v 8.965897 19.031157 33.304901
v 10.173595 17.422504 32.804604
v 10.173595 19.031157 32.804604
v 7.733597 19.031157 33.741203
v 7.733597 17.422504 33.741203
v 6.480194 17.422504 34.112503
v 6.480194 19.031157 34.112503
v 5.209095 17.422504 34.417702
v 5.209095 19.031157 34.417702
v 2.627594 17.422504 34.826500
v 2.627594 19.031157 34.826500
v 3.923695 17.422504 34.655899
v 3.923695 19.031157 34.655899
v 11.982197 19.031157 -11.911478
v 11.353596 17.422504 -12.253119
v 11.353596 19.031157 -12.253119
v 12.837894 17.422504 -11.423098
v 12.502396 17.422504 -11.628998
v 12.502396 19.031157 -11.629098
v 13.243496 17.422504 -11.174598
v 13.616997 19.031157 -10.945798
v 13.616997 17.422504 -10.945798
v 14.694294 17.422504 -10.205598
v 15.731396 17.422504 -9.409598
v 15.731396 19.031157 -9.409598
v -22.538406 19.031157 -0.695498
v -22.793304 17.422504 -0.161299
v -22.793304 19.031157 -0.161299
v -22.230507 19.031157 -1.341099
v -22.230507 17.422504 -1.341099
v -24.644501 17.422504 13.900400
v -24.644501 19.031157 13.900400
v 24.136396 17.422504 3.532103
v 24.136396 19.031157 3.532103
v 20.218395 19.031157 24.670801
v 20.218395 17.422504 24.670801
v 20.958796 17.422504 23.593500
v 20.958796 19.031157 23.593500
v 22.265596 17.422504 21.330103
v 22.265596 19.031157 21.330103
v 21.641796 19.031157 22.478903
v 21.641796 17.422504 22.478903
v 22.828396 17.422504 20.150202
v 22.828396 19.031157 20.150202
v 23.328695 17.422504 18.942503
v 23.328695 19.031157 18.942503
v -15.696304 17.422504 29.398901
v -15.696304 19.031157 29.398901
v -16.690308 19.031157 28.549902
v -16.690308 17.422504 28.549902
v -10.138405 17.422504 -12.815958
v -10.138405 19.031157 -12.815958
v 0.017597 17.422504 -14.974328
v 0.017597 19.031157 -14.974328
v -1.289204 17.422504 -14.939999
v -1.289204 19.031157 -14.939999
v -2.592403 17.422504 -14.837729
v -2.592403 19.031157 -14.837729
v -3.888504 17.422504 -14.666808
v -3.888504 19.031157 -14.666808
v -6.445004 17.422504 -14.123278
v -6.445004 19.031157 -14.123278
v -5.173904 19.031157 -14.428658
v -5.173904 17.422504 -14.428658
v -14.659203 19.031157 30.194700
v -14.659203 17.422504 30.194700
v -8.930706 17.422504 -13.315858
v -8.930706 19.031157 -13.315858
v -7.698406 17.422504 -13.752108
v -7.698406 19.031157 -13.752108
v -12.467205 17.422504 31.618101
v -12.467205 19.031157 31.618101
v -11.318405 17.422504 32.241798
v -11.318405 19.031157 32.241798
v -10.138405 17.422504 32.804604
v -10.138405 19.031157 32.804604
v -7.698406 17.422504 33.741203
v -7.698406 19.031157 33.741203
v 1.324394 17.422504 -14.939999
v 1.324394 19.031157 -14.939999
v 2.627594 17.422504 -14.837729
v 2.627594 19.031157 -14.837729
v 3.923695 17.422504 -14.666808
v 3.923695 19.031157 -14.666808
v 5.209095 17.422504 -14.428658
v 5.209095 19.031157 -14.428658
v 6.480194 17.422504 -14.123278
v 6.480194 19.031157 -14.123278
v 8.965897 17.422504 -13.315858
v 8.965897 19.031157 -13.315858
v 7.733597 17.422504 -13.752108
v 7.733597 19.031157 -13.752108
v 10.173595 17.422504 -12.815958
v 10.173595 19.031157 -12.815958
v -18.538406 19.031157 -6.712698
v -17.638504 19.031157 -7.660998
v -17.638504 17.422504 -7.660998
v -22.230507 17.422504 21.330103
v -22.230507 19.031157 21.330103
v 24.952995 17.422504 11.301203
v 24.952995 19.031157 11.301203
v 24.987095 17.422504 9.994501
v 24.987095 19.031157 9.994501
v 24.952995 17.422504 8.687702
v 24.952995 19.031157 8.687702
v 24.850296 17.422504 7.384502
v 24.850296 19.031157 7.384502
v 24.679796 17.422504 6.088503
v 24.679796 19.031157 6.088503
v 24.441496 17.422504 4.803102
v 24.441496 19.031157 4.803102
v -24.406303 17.422504 15.185801
v -24.101105 17.422504 16.456903
v -24.101105 19.031157 16.456903
v -23.293503 17.422504 18.942503
v -23.293503 19.031157 18.942503
v -23.067001 19.031157 19.489401
v -22.793304 17.422504 20.150202
v -22.793304 19.031157 20.150202
v -19.387405 17.422504 -5.718597
v -19.387405 19.031157 -5.718597
v -20.183205 17.422504 -4.681599
v -20.183205 19.031157 -4.681599
v -21.606705 17.422504 -2.489899
v -21.606705 19.031157 -2.489899
v -23.729904 17.422504 17.710302
v -23.729904 19.031157 17.710302
v 23.764996 17.422504 17.710302
v 23.764996 19.031157 17.710302
v 24.136396 17.422504 16.456903
v 24.136396 19.031157 16.456903
v -18.538406 17.422504 26.701902
v -18.538406 19.031157 26.701902
v -18.131004 19.031157 27.131201
v -17.638504 17.422504 27.650103
v -17.638504 19.031157 27.650103
v -19.387405 17.422504 25.707804
v -19.387405 19.031157 25.707804
v -20.183205 17.422504 24.670801
v -20.183205 19.031157 24.670801
v 24.679796 17.422504 13.900503
v 24.679796 19.031157 13.900503
v 24.441496 19.031157 15.185801
v 24.441496 17.422504 15.185801
v 24.756996 19.031157 13.313601
v 24.850395 17.422504 12.604403
v 24.850395 19.031157 12.604403
v 24.896795 19.031157 12.014303
v -21.606705 17.422504 22.478903
v -21.606705 19.031157 22.478903
v -20.923607 17.422504 23.593500
v -20.923607 19.031157 23.593500
v -20.588402 19.031157 24.081301
v -15.696304 17.422504 -9.409598
v -15.696304 19.031157 -9.409598
v -14.659203 17.422504 -10.205598
v -14.659203 19.031157 -10.205598
v -16.690308 17.422504 -8.560699
v -16.690308 19.031157 -8.560699
v -15.995605 17.422504 -9.153998
v -13.581802 19.031157 -10.945798
v -13.581802 17.422504 -10.945798
v -12.802803 17.422504 -11.423098
v -11.318405 19.031157 -12.253119
v -12.121304 17.422504 -11.816798
v -11.318405 17.422504 -12.253119
v -12.467205 17.422504 -11.628998
v -12.467205 19.031157 -11.629098
v -8.930706 17.422504 33.304901
v -8.930706 19.031157 33.304901
v -13.581802 17.422504 30.935102
v -13.581802 19.031157 30.935102
v -20.923607 17.422504 -3.604498
v -20.923607 19.031157 -3.604498
v 16.725494 19.031157 -8.560699
v 16.725494 17.422504 -8.560699
v -1.289204 17.422504 34.929100
v -1.289204 19.031157 34.929100
v -24.406303 17.422504 4.803202
v -24.406303 19.031157 4.803202


usemtl Turquoise
f 169 580 219
f 219 603 169
f 119 169 603
f 605 119 603
f 603 604 605
f 606 605 604
f 15 606 604
f 578 15 604
f 604 219 578
f 578 219 579
f 578 579 14
f 14 579 642
f 224 14 642
f 172 224 642
f 222 172 642
f 223 222 642
f 638 223 642
f 642 641 638
f 314 638 641
f 641 218 314
f 314 218 168
f 313 314 168
f 313 168 643
f 637 643 168
f 168 639 637
f 639 309 637
f 638 637 309
f 638 309 13
f 13 309 118
f 12 13 118
f 12 118 217
f 217 220 12
f 12 220 644
f 12 644 651
f 651 318 12
f 11 12 318
f 318 316 11
f 11 316 647
f 117 11 647
f 117 647 535
f 117 535 551
f 553 117 551
f 551 552 553
f 553 552 545
f 544 545 552
f 552 151 544
f 151 152 544
f 152 547 544
f 547 546 544
f 542 546 547
f 546 542 543
f 114 546 543
f 543 541 114
f 114 541 539
f 74 114 539
f 539 158 74
f 206 74 158
f 537 206 158
f 158 207 537
f 207 205 537
f 205 539 537
f 539 538 537
f 536 537 538
f 536 538 154
f 155 536 154
f 394 155 154
f 394 154 395
f 395 392 394
f 392 393 394
f 394 393 402
f 393 404 402
f 402 404 403
f 403 115 402
f 402 115 155
f 155 115 564
f 155 564 562
f 564 563 562
f 562 563 536
f 563 564 565
f 206 563 565
f 206 565 567
f 209 206 567
f 159 209 567
f 210 159 567
f 211 210 567
f 569 211 567
f 567 566 569
f 568 569 566
f 568 566 79
f 568 79 80
f 80 570 568
f 320 570 80
f 112 320 80
f 112 80 77
f 574 112 77
f 77 572 574
f 572 573 574
f 575 574 573
f 575 573 161
f 571 575 161
f 161 321 571
f 321 213 571
f 213 160 571
f 160 569 571
f 569 570 571
f 161 160 213
f 161 58 160
f 159 160 58
f 206 159 58
f 60 58 161
f 161 577 60
f 60 577 62
f 62 61 60
f 61 54 60
f 60 54 55
f 55 57 60
f 57 59 60
f 59 57 58
f 58 57 56
f 56 74 58
f 74 56 75
f 74 75 341
f 341 342 74
f 340 342 341
f 339 340 341
f 341 76 339
f 339 76 77
f 338 340 339
f 337 338 339
f 80 337 339
f 337 80 335
f 335 336 337
f 350 336 335
f 406 350 335
f 335 79 406
f 406 79 110
f 406 110 403
f 403 405 406
f 405 350 406
f 121 350 405
f 119 121 405
f 119 513 121
f 121 513 510
f 510 122 121
f 120 121 122
f 120 122 444
f 120 444 123
f 338 120 123
f 336 120 338
f 123 444 446
f 123 446 662
f 123 662 449
f 33 123 449
f 33 449 450
f 33 450 452
f 33 452 418
f 30 33 418
f 30 418 32
f 30 32 31
f 29 30 31
f 29 31 28
f 29 28 176
f 176 18 29
f 176 230 18
f 230 19 18
f 19 33 18
f 19 345 33
f 345 344 33
f 343 344 345
f 349 343 345
f 20 349 345
f 21 349 20
f 177 21 20
f 582 177 20
f 633 582 20
f 20 19 633
f 633 19 635
f 635 632 633
f 581 633 632
f 581 632 125
f 125 601 581
f 601 602 581
f 582 581 602
f 582 602 225
f 248 225 602
f 247 248 602
f 246 247 602
f 249 246 602
f 178 249 602
f 600 178 602
f 178 600 21
f 22 21 600
f 600 599 22
f 610 22 599
f 599 609 610
f 596 610 609
f 596 609 244
f 183 596 244
f 245 183 244
f 183 245 609
f 598 183 609
f 183 598 25
f 595 183 25
f 595 25 31
f 514 595 31
f 31 455 514
f 455 456 514
f 515 514 456
f 23 515 456
f 23 456 16
f 16 410 23
f 23 410 411
f 411 348 23
f 348 22 23
f 23 22 597
f 597 180 23
f 597 596 180
f 595 180 596
f 180 595 515
f 411 346 348
f 346 347 348
f 348 347 349
f 11 347 346
f 346 412 11
f 412 346 411
f 410 412 411
f 381 412 410
f 382 381 410
f 380 381 382
f 370 380 382
f 17 370 382
f 17 382 16
f 10 370 17
f 10 17 456
f 10 456 454
f 1 10 454
f 454 419 1
f 419 453 1
f 2 1 453
f 2 453 451
f 2 451 3
f 3 367 2
f 2 367 354
f 367 362 354
f 362 361 354
f 354 361 368
f 1 354 368
f 368 370 1
f 368 369 370
f 361 369 368
f 8 369 361
f 8 361 9
f 8 9 608
f 657 8 608
f 608 607 657
f 656 657 607
f 607 119 656
f 657 656 250
f 250 251 657
f 251 250 8
f 606 8 250
f 250 656 606
f 512 607 608
f 512 608 116
f 116 170 512
f 512 170 509
f 509 513 512
f 511 509 170
f 511 510 509
f 170 116 511
f 511 116 7
f 443 511 7
f 7 6 443
f 6 445 443
f 445 444 443
f 6 5 445
f 447 445 5
f 447 5 4
f 4 663 447
f 663 662 447
f 448 662 663
f 663 4 448
f 3 448 4
f 4 365 3
f 365 4 5
f 366 365 5
f 5 364 366
f 366 364 365
f 364 363 365
f 365 363 367
f 363 364 7
f 7 362 363
f 9 362 7
f 447 446 445
f 6 364 5
f 364 6 7
f 443 122 511
f 608 7 116
f 607 512 513
f 251 8 657
f 9 7 608
f 15 369 8
f 369 15 14
f 380 369 14
f 9 361 362
f 363 362 367
f 3 365 367
f 451 448 3
f 451 450 448
f 453 452 451
f 2 354 1
f 419 452 453
f 454 418 419
f 456 32 454
f 370 10 1
f 369 380 370
f 14 381 380
f 13 381 14
f 14 172 13
f 172 223 13
f 13 412 381
f 16 382 410
f 17 16 456
f 180 515 23
f 32 456 455
f 514 515 595
f 601 25 598
f 598 600 601
f 183 595 596
f 245 244 609
f 610 596 597
f 609 599 598
f 22 610 597
f 600 598 599
f 22 348 21
f 178 179 249
f 228 249 179
f 246 228 179
f 226 246 179
f 247 226 179
f 227 247 179
f 248 227 179
f 178 177 179
f 225 179 177
f 228 246 249
f 226 247 246
f 227 248 247
f 179 225 248
f 602 601 600
f 601 125 25
f 24 25 125
f 124 24 125
f 125 148 124
f 124 148 531
f 531 532 124
f 124 532 199
f 27 124 199
f 26 27 199
f 199 174 26
f 174 195 26
f 195 260 26
f 260 175 26
f 175 256 26
f 256 181 26
f 181 182 26
f 176 26 182
f 182 201 176
f 176 201 200
f 200 304 176
f 304 200 636
f 230 304 636
f 302 230 636
f 303 302 636
f 229 303 636
f 301 229 636
f 635 301 636
f 636 622 635
f 634 635 622
f 634 622 125
f 137 125 622
f 137 622 620
f 138 137 620
f 620 141 138
f 138 141 135
f 141 136 135
f 136 555 135
f 655 135 555
f 555 554 655
f 654 655 554
f 654 554 143
f 143 549 654
f 549 548 654
f 530 548 549
f 549 139 530
f 139 141 530
f 533 530 141
f 533 141 618
f 618 199 533
f 199 618 619
f 619 618 617
f 253 619 617
f 174 253 617
f 619 253 174
f 615 617 618
f 617 615 616
f 617 616 260
f 258 260 616
f 259 258 616
f 261 259 616
f 262 261 616
f 263 262 616
f 262 263 175
f 198 262 175
f 261 198 175
f 198 261 262
f 259 261 175
f 175 258 259
f 616 615 263
f 620 263 615
f 263 620 621
f 268 263 621
f 274 268 621
f 275 274 621
f 269 275 621
f 270 269 621
f 266 270 621
f 265 266 621
f 267 265 621
f 196 267 621
f 264 196 621
f 181 264 621
f 271 181 621
f 272 271 621
f 623 272 621
f 623 182 272
f 257 272 182
f 271 257 182
f 271 272 257
f 196 264 181
f 270 196 181
f 267 196 254
f 254 196 265
f 255 265 196
f 266 255 196
f 254 265 267
f 255 266 265
f 196 270 266
f 269 270 256
f 275 269 256
f 197 275 256
f 274 197 256
f 274 275 197
f 256 268 274
f 268 256 263
f 621 620 623
f 141 615 618
f 533 532 530
f 139 140 141
f 140 139 134
f 140 134 136
f 136 134 559
f 557 136 559
f 559 556 557
f 554 557 556
f 554 556 144
f 145 144 556
f 145 556 558
f 558 652 145
f 560 145 652
f 652 653 560
f 561 560 653
f 133 561 653
f 134 133 653
f 472 561 133
f 133 132 472
f 132 474 472
f 474 471 472
f 471 474 473
f 471 473 109
f 109 147 471
f 147 560 471
f 147 146 560
f 146 147 351
f 351 145 146
f 327 145 351
f 327 351 328
f 326 327 328
f 325 326 328
f 329 325 328
f 328 89 329
f 329 89 627
f 627 50 329
f 50 352 329
f 35 352 50
f 35 50 36
f 35 36 37
f 34 35 37
f 37 421 34
f 34 421 48
f 48 322 34
f 34 322 352
f 352 322 325
f 325 322 324
f 88 325 324
f 88 324 87
f 87 439 88
f 88 439 486
f 88 486 484
f 484 487 88
f 487 326 88
f 490 326 487
f 487 489 490
f 490 489 492
f 491 492 489
f 99 491 489
f 489 488 99
f 488 483 99
f 97 99 483
f 96 97 483
f 483 485 96
f 485 440 96
f 95 96 440
f 440 437 95
f 94 95 437
f 437 433 94
f 85 94 433
f 433 435 85
f 85 435 469
f 85 469 86
f 360 85 86
f 86 84 360
f 84 358 360
f 358 359 360
f 359 371 360
f 360 371 373
f 371 372 373
f 373 372 374
f 374 94 373
f 94 374 375
f 374 379 375
f 379 378 375
f 375 378 376
f 376 96 375
f 378 377 376
f 377 97 376
f 378 99 377
f 378 98 99
f 379 98 378
f 379 105 98
f 493 98 105
f 93 493 105
f 93 105 371
f 371 92 93
f 93 92 481
f 481 92 479
f 479 480 481
f 482 481 480
f 480 149 482
f 149 494 482
f 494 493 482
f 493 494 495
f 496 495 494
f 492 495 496
f 492 496 149
f 326 492 149
f 131 326 149
f 149 496 494
f 480 131 149
f 661 131 480
f 130 131 661
f 661 132 130
f 132 142 130
f 130 142 143
f 132 139 142
f 132 661 478
f 478 476 132
f 478 475 476
f 473 476 475
f 475 478 477
f 475 477 108
f 109 475 108
f 356 109 108
f 356 108 357
f 356 357 355
f 334 356 355
f 106 334 355
f 83 106 355
f 355 84 83
f 83 84 463
f 463 129 83
f 129 463 461
f 129 461 519
f 519 520 129
f 520 106 129
f 106 520 525
f 525 522 106
f 522 526 106
f 526 90 106
f 331 106 90
f 331 90 330
f 330 332 331
f 332 333 331
f 331 333 334
f 332 147 333
f 351 332 330
f 330 90 89
f 526 528 90
f 90 528 611
f 611 613 90
f 613 627 90
f 613 283 627
f 626 627 283
f 283 279 626
f 279 278 626
f 278 188 626
f 188 277 626
f 277 276 626
f 276 280 626
f 280 128 626
f 128 625 626
f 625 624 626
f 628 624 625
f 625 282 628
f 282 292 628
f 292 289 628
f 289 287 628
f 287 288 628
f 288 290 628
f 290 291 628
f 291 286 628
f 286 234 628
f 234 285 628
f 285 284 628
f 284 233 628
f 233 630 628
f 630 629 628
f 629 630 583
f 585 629 583
f 583 239 585
f 586 585 239
f 586 239 66
f 66 67 586
f 588 586 67
f 67 68 588
f 69 588 68
f 68 388 69
f 69 388 384
f 69 384 63
f 517 69 63
f 458 517 63
f 458 63 49
f 458 49 460
f 460 457 458
f 516 458 457
f 516 457 42
f 42 73 516
f 191 516 73
f 73 243 191
f 243 593 191
f 243 592 593
f 594 593 592
f 594 592 242
f 242 187 594
f 517 594 187
f 517 516 594
f 69 187 242
f 242 592 69
f 69 592 590
f 592 591 590
f 589 590 591
f 591 184 589
f 587 589 184
f 587 184 241
f 587 241 240
f 240 586 587
f 240 241 232
f 240 232 184
f 585 240 184
f 184 50 585
f 51 50 184
f 184 73 51
f 38 51 73
f 36 51 38
f 38 39 36
f 431 36 39
f 431 39 430
f 430 432 431
f 431 432 429
f 428 429 432
f 432 78 428
f 78 44 428
f 44 426 428
f 44 424 426
f 424 427 426
f 429 426 427
f 429 427 36
f 427 424 425
f 427 425 37
f 37 425 423
f 425 424 423
f 422 423 424
f 43 422 424
f 45 43 424
f 43 45 40
f 40 42 43
f 43 42 420
f 42 459 420
f 459 460 420
f 421 420 460
f 420 421 422
f 39 42 40
f 41 39 40
f 658 39 41
f 658 41 508
f 508 507 658
f 659 658 507
f 659 507 111
f 441 659 111
f 441 111 78
f 81 441 78
f 81 430 441
f 442 441 430
f 78 111 53
f 111 57 53
f 111 150 57
f 111 167 150
f 150 167 505
f 505 165 150
f 56 150 165
f 165 164 56
f 56 164 503
f 113 56 503
f 503 500 113
f 500 501 113
f 498 113 501
f 501 502 498
f 497 498 502
f 62 497 502
f 46 62 502
f 502 504 46
f 46 504 166
f 46 166 47
f 47 44 46
f 46 44 52
f 52 53 46
f 44 53 52
f 47 45 44
f 41 45 47
f 166 41 47
f 504 505 166
f 506 166 505
f 507 166 506
f 505 504 503
f 502 500 504
f 53 62 46
f 62 499 497
f 499 498 497
f 577 498 499
f 498 577 576
f 82 498 576
f 163 82 576
f 214 163 576
f 156 214 576
f 215 156 576
f 216 215 576
f 572 216 576
f 572 82 216
f 157 216 82
f 215 157 82
f 76 82 572
f 82 76 75
f 157 215 216
f 156 215 82
f 156 163 214
f 156 82 163
f 498 82 75
f 576 577 572
f 500 502 501
f 503 504 500
f 113 498 56
f 164 165 503
f 165 505 503
f 505 167 506
f 167 111 506
f 441 442 659
f 111 507 506
f 658 659 442
f 166 507 508
f 41 166 508
f 39 658 442
f 45 41 40
f 43 420 422
f 423 422 421
f 424 44 45
f 53 44 78
f 432 81 78
f 426 429 428
f 432 430 81
f 442 430 39
f 431 429 36
f 42 39 38
f 232 241 184
f 587 588 589
f 591 73 184
f 590 589 588
f 593 594 516
f 591 592 243
f 243 73 591
f 516 191 593
f 73 42 38
f 42 457 459
f 457 460 459
f 49 48 460
f 49 323 48
f 49 383 323
f 323 383 353
f 324 323 353
f 353 383 385
f 353 385 87
f 385 100 87
f 87 100 434
f 87 434 438
f 434 433 438
f 100 102 434
f 102 436 434
f 436 435 434
f 102 470 436
f 470 469 436
f 469 470 467
f 468 467 470
f 467 468 466
f 467 466 86
f 465 466 468
f 465 468 102
f 102 464 465
f 464 463 465
f 102 104 464
f 103 464 104
f 391 103 104
f 390 391 104
f 104 386 390
f 386 389 390
f 389 409 390
f 67 409 389
f 388 389 386
f 387 388 386
f 387 386 101
f 101 385 387
f 385 384 387
f 386 102 101
f 390 409 391
f 409 408 391
f 391 408 413
f 107 391 413
f 413 414 107
f 414 126 107
f 126 521 107
f 521 518 107
f 107 518 103
f 103 518 462
f 518 461 462
f 462 461 464
f 521 519 518
f 521 126 524
f 524 525 521
f 126 523 524
f 523 522 524
f 527 523 126
f 527 126 70
f 527 70 529
f 529 528 527
f 70 612 529
f 612 611 529
f 70 252 612
f 614 612 252
f 614 252 71
f 283 614 71
f 72 283 71
f 71 415 72
f 72 415 417
f 72 417 64
f 72 64 128
f 128 276 72
f 276 188 72
f 192 128 64
f 127 192 64
f 64 66 127
f 66 64 65
f 409 66 65
f 64 407 65
f 65 407 408
f 192 127 185
f 185 295 192
f 295 630 192
f 631 630 295
f 295 294 631
f 294 293 631
f 293 297 631
f 584 631 297
f 297 296 584
f 296 299 584
f 299 298 584
f 298 300 584
f 300 239 584
f 300 298 239
f 127 239 298
f 298 189 127
f 189 299 127
f 299 190 127
f 298 299 189
f 299 296 190
f 186 190 296
f 296 238 186
f 238 297 186
f 190 186 185
f 186 293 185
f 293 236 185
f 236 294 185
f 294 237 185
f 238 296 297
f 584 583 631
f 297 293 186
f 236 293 294
f 237 294 295
f 237 295 185
f 190 185 127
f 192 193 128
f 193 291 128
f 291 194 128
f 194 292 128
f 291 193 234
f 192 233 193
f 64 417 407
f 407 417 414
f 414 417 416
f 70 414 416
f 416 415 70
f 415 416 417
f 415 71 70
f 188 283 72
f 614 613 612
f 70 71 252
f 527 526 523
f 414 70 126
f 413 407 414
f 408 407 413
f 408 409 65
f 391 107 103
f 103 462 464
f 102 386 104
f 466 465 463
f 102 468 470
f 100 101 102
f 100 385 101
f 383 384 385
f 63 383 49
f 458 516 517
f 517 187 69
f 63 384 383
f 384 388 387
f 68 389 388
f 590 588 69
f 67 389 68
f 588 587 586
f 66 409 67
f 239 127 66
f 585 586 240
f 239 583 584
f 50 629 585
f 50 624 629
f 631 583 630
f 233 192 630
f 233 284 193
f 284 235 193
f 235 285 193
f 235 284 285
f 285 234 193
f 286 291 234
f 290 194 291
f 288 194 290
f 288 287 194
f 287 281 194
f 281 289 194
f 287 289 281
f 292 194 289
f 292 282 128
f 624 628 629
f 128 282 625
f 280 276 128
f 188 276 277
f 188 278 279
f 188 279 283
f 627 626 624
f 283 613 614
f 611 612 613
f 528 529 611
f 526 527 528
f 522 523 526
f 525 524 522
f 520 521 525
f 519 521 520
f 461 518 519
f 463 464 461
f 466 463 84
f 106 83 129
f 334 106 331
f 333 356 334
f 355 357 358
f 357 108 91
f 91 92 357
f 92 359 357
f 333 109 356
f 108 477 91
f 477 660 91
f 660 479 91
f 660 661 479
f 477 478 660
f 661 660 478
f 130 143 131
f 131 143 144
f 481 482 493
f 480 479 661
f 91 479 92
f 481 493 93
f 495 98 493
f 495 491 98
f 372 105 379
f 372 379 374
f 105 372 371
f 359 92 371
f 357 359 358
f 358 84 355
f 86 466 84
f 373 85 360
f 86 469 467
f 435 436 469
f 433 434 435
f 373 94 85
f 437 438 433
f 438 437 439
f 95 94 375
f 440 439 437
f 375 96 95
f 485 439 440
f 483 484 485
f 376 97 96
f 377 99 97
f 488 487 483
f 99 98 491
f 495 492 491
f 489 487 488
f 326 490 492
f 484 483 487
f 486 485 484
f 439 485 486
f 438 439 87
f 87 324 353
f 322 323 324
f 48 323 322
f 421 460 48
f 421 37 423
f 36 427 37
f 36 50 51
f 34 352 35
f 627 624 50
f 89 90 627
f 330 89 328
f 329 352 325
f 326 325 88
f 131 327 326
f 328 351 330
f 145 327 131
f 147 332 351
f 333 147 109
f 473 475 109
f 476 473 474
f 474 132 476
f 133 139 132
f 472 471 561
f 560 561 471
f 653 652 559
f 146 145 560
f 558 559 652
f 144 145 131
f 556 559 558
f 653 559 134
f 139 133 134
f 142 139 549
f 548 530 531
f 549 143 142
f 144 143 554
f 655 654 548
f 655 548 148
f 557 554 555
f 135 655 148
f 148 137 135
f 136 557 555
f 141 140 136
f 620 615 141
f 135 137 138
f 622 623 620
f 623 622 636
f 201 623 636
f 307 201 636
f 305 307 636
f 306 305 636
f 273 306 636
f 306 273 200
f 231 306 200
f 200 307 231
f 231 305 306
f 307 305 231
f 229 301 635
f 302 303 229
f 229 230 302
f 200 273 636
f 307 200 201
f 623 201 182
f 271 182 181
f 181 256 270
f 256 175 263
f 260 258 175
f 260 195 617
f 195 174 617
f 199 619 174
f 28 27 26
f 28 25 27
f 532 533 199
f 531 530 532
f 548 531 148
f 148 125 137
f 24 124 27
f 27 25 24
f 632 634 125
f 632 635 634
f 19 229 635
f 633 581 582
f 177 582 225
f 178 21 177
f 21 348 349
f 347 343 349
f 117 343 347
f 342 343 117
f 342 117 114
f 114 117 545
f 344 343 340
f 340 123 344
f 20 345 19
f 19 230 229
f 304 230 176
f 176 28 26
f 28 31 25
f 18 30 29
f 31 32 455
f 418 454 32
f 18 33 30
f 452 419 418
f 450 451 452
f 449 448 450
f 344 123 33
f 662 448 449
f 446 447 662
f 444 445 446
f 122 443 444
f 336 121 120
f 510 511 122
f 513 509 510
f 513 119 607
f 350 121 336
f 336 338 337
f 338 123 340
f 343 342 340
f 341 75 76
f 75 56 498
f 56 57 150
f 55 53 57
f 53 55 54
f 61 53 54
f 62 53 61
f 499 62 577
f 58 60 59
f 213 321 161
f 571 570 575
f 319 575 570
f 161 573 577
f 574 575 319
f 573 572 577
f 572 77 76
f 112 574 319
f 319 208 112
f 208 212 112
f 212 208 320
f 319 320 208
f 339 77 80
f 320 112 212
f 320 319 570
f 335 80 79
f 79 566 110
f 564 110 566
f 570 569 568
f 566 567 564
f 160 211 569
f 160 210 211
f 210 160 159
f 159 206 209
f 565 564 567
f 564 115 110
f 403 110 115
f 404 405 403
f 404 169 405
f 169 404 393
f 168 169 393
f 393 173 168
f 392 173 393
f 392 202 173
f 202 639 173
f 639 202 645
f 645 644 639
f 640 639 644
f 202 204 645
f 650 645 204
f 650 204 648
f 648 317 650
f 651 650 317
f 650 651 646
f 646 651 645
f 317 648 647
f 649 647 648
f 649 648 204
f 534 649 204
f 203 534 204
f 398 203 204
f 398 204 397
f 398 397 396
f 399 398 396
f 396 152 399
f 396 153 152
f 152 153 542
f 542 153 540
f 540 541 542
f 540 153 154
f 395 153 396
f 401 398 399
f 400 401 399
f 399 151 400
f 400 151 162
f 400 162 203
f 203 401 400
f 396 397 395
f 401 203 398
f 203 162 534
f 162 550 534
f 550 535 534
f 162 552 550
f 534 535 649
f 645 650 646
f 397 204 202
f 397 202 392
f 397 392 395
f 395 154 153
f 402 155 394
f 155 562 536
f 538 540 154
f 537 536 563
f 538 539 540
f 205 207 158
f 206 537 563
f 58 74 206
f 158 539 205
f 342 114 74
f 541 540 539
f 545 546 114
f 543 542 541
f 542 547 152
f 399 152 151
f 162 151 552
f 545 544 546
f 552 551 550
f 545 117 553
f 535 550 551
f 647 649 535
f 347 11 117
f 317 647 316
f 316 318 317
f 412 12 11
f 651 317 318
f 644 645 651
f 644 220 640
f 220 217 640
f 217 315 640
f 315 312 640
f 312 311 640
f 311 171 640
f 171 118 640
f 118 310 640
f 310 308 640
f 308 309 640
f 309 308 221
f 221 310 309
f 221 308 310
f 171 311 118
f 217 311 312
f 312 315 217
f 311 217 118
f 12 412 13
f 310 118 309
f 309 639 640
f 639 168 173
f 637 638 643
f 314 313 643
f 169 168 218
f 641 580 218
f 641 579 580
f 643 638 314
f 13 223 638
f 222 223 172
f 224 172 14
f 579 641 642
f 14 15 578
f 15 8 606
f 605 606 656
f 605 656 119
f 405 169 119
f 219 604 603
f 580 579 219
f 169 218 580
