# Exported from 3D Builder
mtllib Cutcircle.mtl

o Object.1
v 15.908100 16.329998 27.553179
v 14.444298 16.329998 28.347979
v 12.940800 16.329998 29.065081
v 11.401897 16.329998 29.702581
v 7.861000 14.721298 30.821379
v 8.234600 14.721298 30.731680
v 8.948299 14.721298 23.310781
v 7.861000 14.721298 23.695681
v 23.644098 16.329998 21.288881
v 22.497498 16.329998 22.497179
v 21.289198 16.329998 23.643679
v 20.022598 16.329998 24.725481
v 18.701097 16.329998 25.739481
v 17.328400 16.329998 26.682981
v 7.861000 16.329998 27.384279
v 9.831799 16.329998 30.258581
v 8.234600 16.329998 30.731680
v 7.861000 15.958900 30.821379
v 7.861000 16.329998 23.715281
v 24.725899 16.329998 20.022280
v 7.861000 16.329998 23.695681
v 8.948299 16.329998 23.310781
v 7.861000 16.140697 23.695681
v 30.821798 16.329998 7.860979
v 30.821798 15.092300 7.860979
v 30.821798 15.702999 7.860979
v 25.148598 16.329998 7.860979
v 23.696098 16.329998 7.860979
v 23.696098 14.910400 7.860979
v 23.696098 14.721298 7.860979
v 27.456799 14.721298 7.860979
v 23.783098 16.329998 7.860979
v 23.696098 16.329998 7.860979
v 23.696098 16.249500 7.860979
v 23.696098 15.576900 7.860979
v 23.696098 14.722198 7.860979
v 23.782999 14.722198 7.860979
v 30.821798 14.722298 7.860979
v 28.238798 14.721298 7.860979
v 30.821798 14.721298 7.860979
v 30.821798 15.179600 7.860979
v 30.821798 15.360699 7.860979
v 30.821798 15.648998 7.860979
v 30.821798 15.686100 7.860979
v 30.732098 14.721298 8.234579
v 30.258999 14.721298 9.831682
v 29.702999 14.721298 11.401781
v 29.065598 14.721298 12.940680
v 28.348497 14.721298 14.444082
v 27.553598 14.721298 15.907881
v 26.683298 14.721298 17.328081
v 27.553598 16.329998 15.907881
v 26.683298 16.329998 17.328081
v 28.348497 16.329998 14.444082
v 13.599400 16.329998 20.940981
v 25.739899 16.329998 18.700880
v 12.484798 16.329998 21.623980
v 11.335999 16.329998 22.247679
v 24.725899 14.721298 20.022280
v 25.739899 14.721298 18.700880
v 23.644098 14.721298 21.288881
v 22.497498 14.721298 22.497179
v 21.289198 14.721298 23.643679
v 20.022598 14.721298 24.725481
v 23.311098 14.721298 8.948381
v 23.311098 16.329998 8.948381
v 22.810799 16.329998 10.156080
v 30.732098 16.329998 8.234579
v 30.258999 16.329998 9.831682
v 20.941198 16.329998 13.599379
v 20.200798 16.329998 14.676680
v 29.702999 16.329998 11.401781
v 29.065598 16.329998 12.940680
v 18.555998 16.329998 16.707781
v 17.656197 16.329998 17.655981
v 16.707897 16.329998 18.555780
v 15.713799 16.329998 19.404779
v 14.676697 16.329998 20.200579
v 15.713799 14.721298 19.404779
v 14.676697 14.721298 20.200579
v 12.940800 14.721298 29.065081
v 14.444298 14.721298 28.347979
v 15.908100 14.721298 27.553179
v 11.401897 14.721298 29.702581
v 13.599400 14.721298 20.940981
v 12.484798 14.721298 21.623980
v 9.831799 14.721298 30.258581
v 11.335999 14.721298 22.247679
v 10.155998 14.721298 22.810480
v 18.701097 14.721298 25.739481
v 22.810799 14.721298 10.156080
v 22.247999 14.721298 11.335981
v 21.624199 14.721298 12.484781
v 20.941198 14.721298 13.599379
v 21.624199 16.329998 12.484781
v 20.200798 14.721298 14.676680
v 20.587997 14.721298 14.328680
v 19.404999 14.721298 15.713682
v 19.404999 16.329998 15.713682
v 18.555998 14.721298 16.707781
v 17.328400 14.721298 26.682981
v 17.656197 14.721298 17.655981
v 22.247999 16.329998 11.335981
v 10.155998 16.329998 22.810480
v 16.707897 14.721298 18.555780
v 7.861000 14.968498 30.821379
v 7.861000 15.192898 23.782679
v 7.861000 14.813099 30.821379
v 7.861000 14.768799 30.821379
v 7.861000 14.750401 30.821379
v 7.861000 14.735798 30.821379
v 7.861000 14.721298 30.821379
v 7.861000 14.721298 23.782679
v 7.861000 15.733997 30.821379
v 7.861000 16.329998 30.821379
v 7.861000 16.329998 23.782679
v 7.861000 15.955200 30.821379
v 7.861000 15.848499 30.821379
v 7.861000 15.804199 30.821379
v 7.861000 15.768898 30.821379
v 7.861000 14.721298 23.695681
v 7.861000 15.186199 23.695681
v 7.861000 15.203598 23.695681
v 7.861000 16.329998 23.695681


usemtl Turquoise
f 113 121 8
f 112 113 8
f 8 5 112
f 111 112 5
f 110 111 5
f 109 110 5
f 108 109 5
f 106 108 5
f 5 18 106
f 114 106 18
f 120 114 18
f 119 120 18
f 118 119 18
f 117 118 18
f 115 117 18
f 115 18 17
f 17 16 115
f 16 4 115
f 4 3 115
f 3 2 115
f 2 1 115
f 15 115 1
f 1 14 15
f 14 13 15
f 13 12 15
f 12 11 15
f 11 10 15
f 19 15 10
f 10 9 19
f 9 20 19
f 20 22 19
f 21 19 22
f 22 7 21
f 23 21 7
f 8 23 7
f 7 6 8
f 7 89 6
f 89 88 6
f 87 6 88
f 88 86 87
f 84 87 86
f 86 85 84
f 81 84 85
f 85 80 81
f 81 80 79
f 81 79 82
f 2 81 82
f 82 83 2
f 82 102 83
f 102 100 83
f 101 83 100
f 100 97 101
f 90 101 97
f 94 90 97
f 96 94 97
f 97 98 96
f 98 71 96
f 70 96 71
f 70 71 69
f 68 70 69
f 45 68 69
f 46 45 69
f 69 47 46
f 46 47 40
f 47 48 40
f 48 49 40
f 49 50 40
f 50 51 40
f 39 40 51
f 51 60 39
f 31 39 60
f 60 59 31
f 30 31 59
f 59 61 30
f 61 62 30
f 62 63 30
f 63 64 30
f 64 65 30
f 65 66 30
f 29 30 66
f 28 29 66
f 24 28 66
f 66 67 24
f 67 68 24
f 67 103 68
f 68 103 95
f 103 92 95
f 93 95 92
f 93 92 90
f 92 91 90
f 91 64 90
f 12 90 64
f 95 93 70
f 94 70 93
f 92 103 91
f 67 91 103
f 91 67 65
f 28 24 27
usemtl Green
f 26 27 24
usemtl Turquoise
f 24 25 26
f 44 26 25
f 43 44 25
f 42 43 25
f 41 42 25
f 38 41 25
f 25 40 38
f 40 25 45
usemtl Green
f 38 37 41
usemtl Turquoise
f 37 38 31
f 36 37 31
f 35 36 31
f 34 35 31
f 33 34 31
f 32 33 31
f 27 32 31
usemtl Green
f 32 27 37
f 33 32 34
f 34 32 35
f 35 32 36
f 37 36 32
f 41 37 42
f 42 37 43
f 43 37 44
f 44 37 26
usemtl Turquoise
f 25 24 45
usemtl Green
f 27 26 37
usemtl Turquoise
f 29 28 27
f 30 29 27
f 66 65 67
f 91 65 64
f 11 64 63
f 10 63 62
f 62 61 10
f 20 61 59
f 20 59 56
f 56 58 20
f 20 58 104
f 58 89 104
f 104 89 22
f 57 58 56
f 56 55 57
f 55 85 57
f 56 53 55
f 53 54 55
f 54 78 55
f 78 80 55
f 54 77 78
f 77 79 78
f 79 77 105
f 76 105 77
f 105 76 102
f 75 102 76
f 75 76 54
f 54 74 75
f 74 100 75
f 100 74 98
f 99 98 74
f 72 99 74
f 72 74 73
f 47 72 73
f 72 71 99
f 54 73 74
f 54 49 73
f 49 54 52
f 54 76 77
f 53 52 54
f 53 51 52
f 51 53 56
f 57 86 58
f 31 30 27
f 56 59 60
f 39 31 38
f 60 51 56
f 40 39 38
f 52 51 50
f 50 49 52
f 73 49 48
f 48 47 73
f 47 69 72
f 45 46 40
f 68 45 24
f 70 68 95
f 69 71 72
f 71 98 99
f 96 70 94
f 90 94 93
f 101 90 14
f 97 100 98
f 14 83 101
f 102 75 100
f 105 102 82
f 82 79 105
f 80 78 79
f 85 55 80
f 3 84 81
f 86 57 85
f 87 84 16
f 88 58 86
f 16 6 87
f 89 58 88
f 23 8 123
f 123 124 23
usemtl Green
f 123 107 124
f 116 124 107
f 107 114 116
usemtl Turquoise
f 124 116 19
usemtl Green
f 122 107 123
f 107 122 113
usemtl Turquoise
f 122 123 8
f 21 23 124
f 7 22 89
f 19 21 124
f 20 104 22
f 9 61 20
f 61 9 10
f 15 19 116
f 11 63 10
f 12 64 11
f 13 90 12
f 90 13 14
f 1 83 14
f 116 115 15
f 83 1 2
f 3 81 2
f 4 84 3
f 84 4 16
f 17 6 16
f 6 17 5
usemtl Green
f 115 116 117
f 117 116 118
f 118 116 119
f 119 116 120
f 120 116 114
f 114 107 106
usemtl Turquoise
f 18 5 17
usemtl Green
f 106 107 108
f 108 107 109
f 109 107 110
f 110 107 111
f 111 107 112
usemtl Turquoise
f 5 8 6
usemtl Green
f 113 112 107
usemtl Turquoise
f 121 122 8
usemtl Green
f 121 113 122

o Object.2
v -12.940804 16.329998 29.065081
v -15.908100 16.329998 27.553179
v -8.234600 14.721298 30.731680
v -17.328304 16.329998 26.682981
v -14.444202 16.329998 28.347979
v -9.831703 16.329998 30.258581
v -11.401901 16.329998 29.702581
v -8.234600 16.329998 30.731680
v -7.860901 16.329998 30.821379
v -7.860901 14.721298 24.192881
v -11.401901 14.721298 29.702581
v -9.831703 14.721298 30.258581
v -7.860901 14.721298 23.695780
v -8.948303 14.721298 23.310781
v -7.860901 14.910400 23.695780
v -8.948303 16.329998 23.310781
v -7.860901 16.329998 23.695780
v -17.328304 14.721298 26.682981
v -15.908100 14.721298 27.553179
v -14.444202 14.721298 28.347979
v -12.940804 14.721298 29.065081
v -10.156002 16.329998 22.810480
v -18.701099 16.329998 25.739481
v -20.022602 16.329998 24.725481
v -11.336002 16.329998 22.247679
v -11.336002 14.721298 22.247679
v -12.484802 14.721298 21.623980
v -12.484802 16.329998 21.623980
v -13.599400 16.329998 20.940981
v -21.289204 16.329998 23.643679
v -20.022602 14.721298 24.725481
v -21.289204 14.721298 23.643679
v -22.497402 14.721298 22.497179
v -19.405003 14.721298 15.713682
v -20.200802 14.721298 14.676680
v -20.200802 16.329998 14.676680
v -19.405003 16.329998 15.713682
v -22.356503 16.329998 16.346281
v -19.456402 16.329998 15.646780
v -19.949505 16.329998 15.787279
v -19.442501 16.329998 15.664782
v -19.442501 16.329998 15.664782
v -19.442501 16.329998 15.664881
v -19.438404 16.329998 15.670179
v -19.404903 16.329998 15.713781
v -19.375698 16.329998 15.747980
v -19.375698 16.329998 15.748079
v -19.375202 16.329998 15.752481
v -18.556004 16.329998 16.707781
v -19.451099 16.329998 15.764681
v -22.807201 16.329998 17.994780
v -18.358303 16.329998 16.916182
v -18.420002 16.329998 16.931082
v -18.358303 16.329998 16.916182
v -18.356304 16.329998 16.918180
v -18.356304 16.329998 16.918180
v -18.556004 16.329998 16.707781
v -18.355305 16.329998 16.919180
v -18.148602 16.329998 17.137079
v -24.486301 16.329998 18.434381
v -17.656101 16.329998 17.655981
v -17.087902 16.329998 18.195181
v -24.725803 16.329998 20.022280
v -23.644100 16.329998 21.288881
v -16.707905 16.329998 18.555780
v -16.707905 14.721298 18.555780
v -17.656101 14.721298 17.655981
v -18.556004 14.721298 16.707781
v -15.713902 14.721298 19.404779
v -14.676800 14.721298 20.200579
v -14.676800 16.329998 20.200579
v -13.599400 14.721298 20.940981
v -22.497402 16.329998 22.497179
v -15.713902 16.329998 19.404779
v -23.644100 14.721298 21.288881
v -24.725803 14.721298 20.022280
v -25.739902 14.721298 18.700880
v -22.810902 14.721298 10.156080
v -23.311100 14.721298 8.948381
v -23.084599 16.329998 9.495279
v -22.810902 16.329998 10.156080
v -23.522900 16.329998 10.052980
v -22.909603 16.329998 9.917780
v -22.909603 16.329998 9.917780
v -22.909603 16.329998 9.917780
v -22.923000 16.329998 9.921080
v -22.248104 16.329998 11.335981
v -22.248104 14.721298 11.335981
v -21.624302 16.329998 12.484781
v -29.065601 16.329998 12.940680
v -28.348499 16.329998 14.444082
v -20.941204 16.329998 13.599379
v -21.624302 14.721298 12.484781
v -20.941204 14.721298 13.599379
v -20.605999 16.329998 14.087179
v -27.553600 16.329998 15.907881
v -26.683300 16.329998 17.328081
v -25.739902 16.329998 18.700880
v -26.683300 14.721298 17.328081
v -25.492901 14.721298 7.860979
v -23.696201 14.721298 7.860979
v -23.696201 14.721397 7.860979
v -23.696201 14.910400 7.860979
v -23.696201 15.272400 7.860979
v -23.696201 16.329998 7.860979
v -23.696201 16.329998 7.860979
v -30.821705 16.329998 7.860979
v -30.732105 16.329998 8.234579
v -30.258999 16.329998 9.831682
v -23.311100 16.329998 8.948381
v -29.702999 16.329998 11.401781
v -30.258999 14.721298 9.831682
v -29.702999 14.721298 11.401781
v -23.516605 16.329998 10.086882
v -23.520504 16.329998 10.066080
v -29.065601 14.721298 12.940680
v -29.142200 14.721298 7.860979
v -28.348499 14.721298 14.444082
v -27.553600 14.721298 15.907881
v -30.821705 14.721199 7.860979
v -30.732105 14.721298 8.234579
v -30.821705 14.986900 7.860979
v -30.821705 15.820099 7.860979
v -22.923000 16.329998 9.921080
v -22.923000 16.329998 9.921080
v -18.701099 14.721298 25.739481
v -19.611904 16.329998 15.799982
v -19.526600 16.329998 15.685080
v -19.526600 16.329998 15.685080
v -10.156002 14.721298 22.810480
v -7.860901 14.721298 30.821379
v -7.860901 14.721298 27.557180
v -7.860901 15.427399 30.821379
v -7.860901 15.500900 30.821379
v -7.860901 15.553799 30.821379
v -7.860901 15.578800 30.821379
v -7.860901 15.939800 27.557180
v -7.860901 16.055401 30.821379
v -7.860901 16.281498 30.821379
v -7.860901 16.305000 30.821379
v -7.860901 16.321999 30.821379
v -7.860901 16.329998 30.821379
v -7.860901 16.329998 27.557180
v -7.860901 14.721298 25.907282
v -7.860901 16.329998 25.174982
v -7.860901 14.721298 25.174982
v -7.860901 16.329998 24.419180
v -7.860901 14.721298 24.419180
v -7.860901 16.329998 24.029181
v -7.860901 14.721298 23.928782
v -7.860901 16.329998 23.928782
v -7.860901 14.721298 23.782679
v -7.860901 16.329998 23.782679
v -7.860901 14.721298 23.704180
v -7.860901 16.329998 23.704180
v -7.860901 15.130199 23.695780
v -7.860901 14.721298 23.695780
v -7.860901 15.731899 23.695780
v -7.860901 16.157101 23.695780
v -7.860901 16.205097 23.695780
v -7.860901 16.280998 23.695780
v -7.860901 16.325100 23.695780
v -7.860901 16.329998 23.695780


usemtl Green
f 275 285 279
f 279 277 275
usemtl Turquoise
f 275 277 273
usemtl Green
f 275 273 274
f 274 276 275
f 276 278 275
f 278 283 275
f 284 275 283
usemtl Turquoise
f 284 283 141
f 285 284 141
f 286 285 141
f 287 286 141
f 279 287 141
usemtl Green
f 287 279 286
usemtl Turquoise
f 283 282 141
f 139 141 282
f 282 280 139
f 280 281 139
f 137 139 281
f 281 278 137
f 139 137 140
f 138 140 137
f 135 138 137
f 137 134 135
f 136 135 134
f 127 136 134
f 134 255 127
f 255 133 127
f 132 127 133
f 133 266 132
f 130 132 266
f 131 130 266
f 266 267 131
f 125 131 267
f 267 269 125
f 129 125 269
f 126 129 269
f 269 271 126
f 271 273 126
f 128 126 273
f 273 141 128
f 140 128 141
f 147 128 140
f 140 146 147
f 148 147 146
f 149 148 146
f 146 150 149
f 151 149 150
f 151 150 145
f 145 144 151
f 196 151 144
f 144 194 196
f 194 195 196
f 153 196 195
f 153 195 197
f 154 153 197
f 197 157 154
f 154 157 156
f 156 155 154
f 155 148 154
f 148 152 154
f 155 250 148
f 142 250 155
f 142 155 193
f 194 142 193
f 143 142 194
f 126 142 143
f 190 193 155
f 190 155 191
f 191 186 190
f 189 190 186
f 188 189 186
f 187 188 186
f 184 187 186
f 186 185 184
f 185 183 184
f 182 184 183
f 183 181 182
f 180 182 181
f 179 180 181
f 178 179 181
f 176 178 181
f 173 176 181
f 181 192 173
f 158 173 192
f 158 192 155
f 173 158 161
f 172 173 161
f 171 172 161
f 170 171 161
f 169 170 161
f 168 169 161
f 167 168 161
f 166 167 161
f 165 166 161
f 164 165 161
f 163 164 161
f 162 163 161
f 160 162 161
f 162 160 219
f 219 220 162
f 162 220 221
f 221 222 162
f 162 222 184
f 174 162 184
f 175 174 184
f 174 175 173
f 162 174 168
f 168 164 162
f 221 223 222
f 222 223 201
f 222 201 187
f 187 201 200
f 200 201 199
f 188 200 199
f 199 197 188
f 188 197 198
f 202 199 201
f 202 201 203
f 203 204 202
f 205 202 204
f 204 206 205
f 206 207 205
f 207 208 205
f 208 209 205
f 209 210 205
f 210 211 205
f 211 212 205
f 213 212 211
f 213 211 214
f 214 215 213
f 213 215 216
f 216 217 213
f 217 216 218
f 217 218 199
f 212 217 199
f 218 159 199
f 157 199 159
f 157 159 158
f 159 160 158
f 218 216 159
f 219 159 216
f 215 219 216
f 214 240 215
f 215 240 242
f 215 242 220
f 220 242 243
f 243 242 224
f 223 243 224
f 242 240 224
f 241 224 240
f 240 237 241
f 237 236 241
f 236 245 241
f 244 241 245
f 245 232 244
f 231 244 232
f 229 231 232
f 232 233 229
f 233 234 229
f 227 229 234
f 234 203 227
f 225 227 203
f 227 225 226
f 226 228 227
usemtl Green
f 226 244 228
f 246 228 244
f 247 228 246
usemtl Turquoise
f 247 246 231
usemtl Green
f 231 230 247
f 228 247 230
usemtl Turquoise
f 228 230 229
f 244 226 224
f 225 224 226
f 225 201 224
f 229 227 228
f 204 234 233
f 233 235 204
f 233 236 235
f 236 233 232
f 230 231 229
f 244 231 246
f 245 236 232
f 235 236 237
f 235 237 214
f 238 235 214
f 206 235 238
f 206 238 239
f 211 239 238
f 224 241 244
f 214 237 240
f 211 238 214
f 212 213 217
f 239 211 210
f 210 209 239
f 209 248 239
f 248 208 239
f 208 249 239
f 249 207 239
f 248 209 208
f 249 208 207
f 206 239 207
f 206 204 235
f 202 205 212
f 204 203 234
f 225 203 201
f 199 202 212
f 201 223 224
f 221 243 223
f 220 243 221
f 215 220 219
f 160 159 219
f 164 163 162
f 165 164 253
f 253 164 166
f 252 166 164
f 167 252 164
f 253 166 165
f 252 167 166
f 164 168 167
f 169 168 174
f 170 169 174
f 251 170 174
f 171 251 174
f 171 170 251
f 174 172 171
f 172 174 173
f 161 158 160
f 176 173 175
f 177 176 175
f 178 177 175
f 177 178 176
f 179 178 175
f 175 180 179
f 182 180 175
f 183 192 181
f 192 183 191
f 182 175 184
f 185 191 183
f 222 187 184
f 200 188 187
f 198 189 188
f 198 193 189
f 195 193 198
f 186 191 185
f 155 192 191
f 190 189 193
f 250 142 147
f 158 155 156
f 156 157 158
f 197 199 157
f 153 154 152
f 152 151 153
f 195 198 197
f 193 195 194
f 194 144 143
f 129 143 144
f 196 153 151
f 125 144 145
f 145 135 125
f 135 145 150
f 135 150 254
f 149 151 152
f 150 146 254
f 254 146 138
f 148 149 152
f 250 147 148
f 142 128 147
f 128 142 126
usemtl Green
f 269 273 271
usemtl Turquoise
f 126 143 129
f 129 144 125
usemtl Green
f 269 267 268
f 269 268 272
f 272 274 269
usemtl Turquoise
f 274 272 134
f 272 270 134
f 270 268 134
f 268 256 134
usemtl Green
f 256 268 261
f 261 260 256
f 259 256 260
usemtl Turquoise
f 259 260 255
f 258 259 255
f 257 258 255
usemtl Green
f 255 256 257
f 257 256 258
f 258 256 259
f 260 261 262
usemtl Turquoise
f 260 262 133
f 262 263 133
f 263 264 133
f 264 265 133
usemtl Green
f 264 261 265
f 265 261 266
f 263 261 264
f 262 261 263
f 270 272 268
f 261 268 267
usemtl Turquoise
f 135 131 125
usemtl Green
f 267 266 261
usemtl Turquoise
f 131 135 130
f 265 266 133
f 127 132 130
f 133 255 260
f 255 134 256
f 136 127 130
f 130 135 136
f 134 137 274
f 254 138 135
f 140 138 146
usemtl Green
f 280 278 281
f 282 278 280
usemtl Turquoise
f 141 139 140
usemtl Green
f 283 278 282
usemtl Turquoise
f 278 276 137
f 276 274 137
usemtl Green
f 269 274 273
usemtl Turquoise
f 141 273 277
f 277 279 141
usemtl Green
f 286 279 285
f 285 275 284

o Object.3
v 12.940800 16.329998 -29.065439
v 8.234600 14.721298 -30.731249
v 7.861000 14.721298 -27.515301
v 9.831799 14.721298 -30.258299
v 7.861000 14.721298 -23.694901
v 8.948299 14.721298 -23.309978
v 7.861000 14.910599 -23.694901
v 8.948299 16.329998 -23.309978
v 7.861000 16.329998 -23.694901
v 7.861000 16.329998 -23.904850
v 10.155998 16.329998 -22.810080
v 17.328400 16.329998 -26.682440
v 14.444298 16.329998 -28.348259
v 7.861000 16.329998 -26.207409
v 11.401897 16.329998 -29.702429
v 9.831799 16.329998 -30.258299
v 8.234600 16.329998 -30.731249
v 7.861000 16.329998 -30.651829
v 7.861000 16.329998 -27.965479
v 15.908100 16.329998 -27.553619
v 15.908100 14.721298 -27.552710
v 14.444298 14.721298 -28.348259
v 12.940800 14.721298 -29.065439
v 11.401897 14.721298 -29.702429
v 10.707397 14.721298 -25.896629
v 11.335999 14.721298 -22.247240
v 10.155998 14.721298 -22.810080
v 10.167900 14.721298 -22.804440
v 10.136299 14.721298 -22.818260
v 10.149899 14.721298 -22.891819
v 10.136200 14.721298 -22.818270
v 10.136200 14.721298 -22.818270
v 10.149899 14.721298 -22.891830
v 11.335999 16.329998 -22.247240
v 20.022598 16.329998 -24.725010
v 11.964600 16.329998 -21.905600
v 12.484798 16.329998 -21.623219
v 21.289198 16.329998 -23.643318
v 13.599400 16.329998 -20.939919
v 14.676697 16.329998 -20.199718
v 22.497498 16.329998 -22.496929
v 22.497498 14.721298 -22.496929
v 21.289198 14.721298 -23.643318
v 20.022598 14.721298 -24.725010
v 18.754799 14.721298 -16.779221
v 17.328400 14.721298 -26.682440
v 18.701097 14.721298 -25.739269
v 18.701097 16.329998 -25.739269
v 17.656197 14.721298 -17.655121
v 18.555998 14.721298 -16.706820
v 19.404999 14.721298 -15.712719
v 20.200798 14.721298 -14.675720
v 20.200798 16.329998 -14.675720
v 19.404999 16.329998 -15.712719
v 27.553598 16.329998 -15.907820
v 25.739899 16.329998 -18.700520
v 18.555998 16.329998 -16.706820
v 17.656197 16.329998 -17.655121
v 16.707897 16.329998 -18.554821
v 16.707897 14.721298 -18.554821
v 15.713799 14.721298 -19.403721
v 14.676697 14.721298 -20.199718
v 13.269798 14.721298 -21.196220
v 13.599400 14.721298 -20.939919
v 13.260597 14.721298 -21.147221
v 13.225899 14.721298 -21.168720
v 12.484798 14.721298 -21.623119
v 12.820297 14.721298 -21.417219
v 15.713799 16.329998 -19.403721
v 23.644098 16.329998 -21.288521
v 24.725899 16.329998 -20.021919
v 23.644098 14.721298 -21.288521
v 24.725899 14.721298 -20.021919
v 25.739899 14.721298 -18.700520
v 22.810799 14.721298 -10.155420
v 22.247999 14.721298 -11.335220
v 21.624199 14.721298 -12.484020
v 22.247999 16.329998 -11.335220
v 21.624199 16.329998 -12.484020
v 21.463299 16.329998 -12.980520
v 22.810799 16.329998 -10.155420
v 29.065598 16.329998 -12.940620
v 28.348497 16.329998 -14.444019
v 20.941198 16.329998 -13.598619
v 28.348497 14.721298 -14.443920
v 27.553598 14.721298 -15.907820
v 26.683298 16.329998 -17.328018
v 26.683298 14.721298 -17.328018
v 27.025999 14.721298 -7.860920
v 23.695898 14.721298 -7.860920
v 23.311098 14.721298 -8.947720
v 23.695898 14.911198 -7.860920
v 23.311098 16.329998 -8.947720
v 23.695898 16.329998 -7.860920
v 23.695898 16.329998 -7.860920
v 30.258999 16.329998 -9.831619
v 27.557699 16.329998 -7.860920
v 30.732098 16.329998 -8.234520
v 30.821798 16.329998 -7.860920
v 30.821798 14.721298 -7.860920
v 30.732098 14.721298 -8.234520
v 30.672998 14.721298 -7.860920
v 30.258999 14.721298 -9.831619
v 29.893799 14.721298 -7.860920
v 29.702999 14.721298 -11.401720
v 29.065598 14.721298 -12.940620
v 26.843199 14.722198 -7.860920
v 26.211498 14.722198 -7.860920
v 25.656898 14.722099 -7.860920
v 25.175198 14.722099 -7.860920
v 23.695898 14.722099 -7.860920
v 23.695898 15.100800 -7.860920
v 23.695898 15.818699 -7.860920
v 23.695898 15.909698 -7.860920
v 23.695898 15.985798 -7.860920
v 23.695898 16.049000 -7.860920
v 23.695898 16.101700 -7.860920
v 25.175198 16.329998 -7.860920
v 25.656898 16.329998 -7.860920
v 26.211498 16.329998 -7.860920
v 26.843199 16.329998 -7.860920
v 30.821798 15.648300 -7.860920
v 30.821798 15.667400 -7.860920
v 30.821798 15.215900 -7.860920
v 30.821798 14.736099 -7.860920
v 30.821798 14.722198 -7.860920
v 27.557699 14.722198 -7.860920
v 29.702999 16.329998 -11.401720
v 20.941198 14.721298 -13.598619
v 7.861000 14.721298 -30.821020
v 7.861000 14.721298 -29.260899
v 7.861000 15.369698 -30.821020
v 7.861000 15.540398 -30.821020
v 7.861000 15.909599 -30.821020
v 7.861000 16.329998 -29.260899
v 7.861000 16.329998 -30.821020
v 7.861000 14.721298 -28.358971
v 7.861000 16.329998 -28.358971
v 7.861000 14.721298 -27.558510
v 7.861000 16.329998 -27.558510
v 7.861000 14.721298 -26.841120
v 7.861000 16.329998 -26.841120
v 7.861000 14.721298 -25.907209
v 7.861000 16.329998 -25.174959
v 7.861000 14.721298 -25.174959
v 7.861000 16.329998 -24.419800
v 7.861000 14.721298 -24.419800
v 7.861000 16.329998 -24.029099
v 7.861000 14.721298 -23.928181
v 7.861000 16.329998 -23.928181
v 7.861000 15.129997 -23.694901
v 7.861000 14.721298 -23.694901
v 7.861000 15.730999 -23.694901
v 7.861000 16.156700 -23.694901
v 7.861000 16.204998 -23.694901
v 7.861000 16.329998 -23.694901


usemtl Turquoise
f 437 443 297
f 435 437 297
f 433 435 297
f 297 301 433
f 431 433 301
f 429 431 301
f 427 429 301
f 301 306 427
f 425 427 306
f 422 425 306
f 423 422 306
f 306 305 423
f 423 305 304
f 304 289 423
f 417 423 289
f 290 417 289
f 289 291 290
f 292 290 291
f 291 293 292
f 293 295 292
f 294 292 295
f 296 294 295
f 297 296 295
f 295 298 297
f 298 299 297
f 299 298 322
f 322 335 299
f 335 334 299
f 299 334 333
f 333 308 299
f 308 307 299
f 300 299 307
f 299 300 301
f 300 288 301
f 309 288 300
f 300 308 309
f 309 308 350
f 309 350 352
f 352 353 309
f 354 309 353
f 353 355 354
f 355 324 354
f 354 324 313
f 323 313 324
f 322 323 324
f 325 322 324
f 324 326 325
f 325 326 327
f 325 327 328
f 328 329 325
f 325 329 330
f 330 331 325
f 329 331 330
f 331 329 332
f 332 308 331
f 336 308 332
f 337 336 332
f 338 337 332
f 338 332 339
f 339 340 338
f 341 338 340
f 341 340 342
f 341 342 343
f 341 343 344
f 345 344 343
f 343 346 345
f 346 347 345
f 336 345 347
f 347 346 348
f 347 348 308
f 308 348 349
f 348 327 349
f 349 327 351
f 350 349 351
f 327 348 356
f 357 327 356
f 346 357 356
f 356 348 346
f 346 343 357
f 357 343 358
f 359 357 358
f 360 359 358
f 358 361 360
f 360 361 362
f 360 362 363
f 360 363 364
f 363 365 364
f 366 364 365
f 367 366 365
f 368 367 365
f 367 368 369
f 369 370 367
f 370 342 367
f 342 371 367
f 370 372 342
f 342 372 373
f 342 373 374
f 374 373 375
f 375 361 374
f 361 343 374
f 361 375 376
f 376 377 361
f 378 361 377
f 377 379 378
f 380 378 379
f 379 381 380
f 381 382 380
f 383 380 382
f 382 384 383
f 385 383 384
f 384 386 385
f 386 387 385
f 388 385 387
f 387 389 388
f 390 388 389
f 389 391 390
f 392 390 391
f 393 392 391
f 372 393 391
f 391 376 372
f 376 391 394
f 394 395 376
f 395 396 376
f 396 397 376
f 397 398 376
usemtl Green
f 398 397 399
usemtl Turquoise
f 398 399 379
f 399 400 379
usemtl Green
f 399 396 400
f 400 396 401
usemtl Turquoise
f 400 401 381
f 401 402 381
f 402 403 381
f 403 404 381
usemtl Green
f 403 405 404
f 404 405 382
f 402 405 403
f 405 402 396
f 406 405 396
usemtl Turquoise
f 405 406 384
f 406 407 384
f 407 408 384
usemtl Green
f 384 408 409
f 410 384 409
usemtl Turquoise
f 410 409 387
f 409 411 387
f 411 412 387
f 412 413 387
usemtl Green
f 412 409 413
f 414 413 409
usemtl Turquoise
f 413 414 391
usemtl Green
f 411 409 412
f 409 408 414
f 394 414 408
f 407 406 408
f 408 406 395
f 401 396 402
f 396 399 397
f 396 395 406
f 408 395 394
usemtl Turquoise
f 414 394 391
f 369 392 393
f 415 392 369
f 415 390 392
f 383 390 415
f 391 389 413
f 383 388 390
f 389 387 413
f 386 410 387
usemtl Green
f 386 384 410
usemtl Turquoise
f 385 388 383
f 384 382 405
f 383 415 380
f 368 380 415
f 368 362 380
f 404 382 381
f 381 379 400
f 378 380 362
f 379 377 398
f 377 376 398
f 375 373 376
f 373 372 376
f 370 393 372
f 369 393 370
f 369 368 415
f 371 366 367
f 371 364 366
f 364 371 416
f 329 364 416
f 329 416 339
f 364 329 359
f 340 416 371
f 365 363 368
f 362 368 363
f 361 378 362
f 359 360 364
f 357 359 328
f 343 361 358
f 345 336 344
f 374 343 342
f 340 371 342
f 344 338 341
f 416 340 339
f 338 344 337
f 337 344 336
f 336 347 308
f 332 329 339
f 328 359 329
f 327 357 328
f 326 351 327
f 351 326 353
f 331 322 325
f 322 321 323
f 321 313 323
f 298 313 321
f 313 298 314
f 312 313 314
f 315 312 314
f 316 315 314
f 317 316 314
f 318 317 314
f 319 318 314
f 293 319 314
f 293 312 319
f 320 319 312
f 318 320 312
f 311 312 293
f 312 311 310
f 302 310 311
f 302 311 303
f 302 303 306
f 288 302 306
f 303 304 306
f 303 311 291
f 288 310 302
f 320 318 319
f 317 318 312
f 317 315 316
f 317 312 315
f 313 312 310
f 310 309 313
f 314 298 293
f 324 355 326
f 353 326 355
f 354 313 309
f 352 351 353
f 351 352 350
f 308 349 350
f 288 309 310
f 307 308 300
f 333 331 308
f 331 333 334
f 335 331 334
f 322 331 335
f 321 322 298
f 294 296 440
f 440 438 294
f 438 439 294
usemtl Green
f 438 436 439
usemtl Turquoise
f 439 436 292
f 436 434 292
f 434 432 292
f 432 430 292
usemtl Green
f 432 434 430
f 433 430 434
f 434 436 433
f 440 436 438
f 441 436 440
f 436 441 437
f 442 437 441
usemtl Turquoise
f 442 441 296
f 443 442 296
f 441 440 296
f 292 294 439
f 295 293 298
f 293 291 311
f 290 292 430
f 430 428 290
f 428 426 290
f 426 424 290
f 424 418 290
usemtl Green
f 418 424 422
f 422 421 418
f 420 418 421
usemtl Turquoise
f 420 421 423
f 419 420 423
usemtl Green
f 419 418 420
f 417 418 419
f 427 424 426
f 428 430 426
f 431 426 430
usemtl Turquoise
f 303 291 289
f 417 290 418
f 417 419 423
f 289 304 303
f 305 306 304
usemtl Green
f 421 422 423
f 425 422 424
f 424 427 425
usemtl Turquoise
f 306 301 288
usemtl Green
f 429 427 426
f 426 431 429
f 430 433 431
usemtl Turquoise
f 301 297 299
usemtl Green
f 433 436 435
f 437 435 436
usemtl Turquoise
f 296 297 443
usemtl Green
f 443 437 442

o Object.4
v -7.860901 16.329998 -23.694939
v -8.948303 16.329998 -23.309978
v -24.725803 16.329998 -20.021919
v -7.860901 14.910400 -23.694939
v -12.940804 16.329998 -29.065439
v -14.444202 16.329998 -28.348259
v -15.908100 16.329998 -27.553619
v -23.644100 16.329998 -21.288521
v -22.497402 16.329998 -22.496929
v -21.289204 16.329998 -23.643318
v -20.022602 16.329998 -24.725010
v -18.701099 16.329998 -25.739269
v -7.860901 16.329998 -28.955639
v -17.328304 16.329998 -26.682440
v -9.831703 16.329998 -30.258299
v -8.234600 16.329998 -30.731249
v -8.234600 14.721298 -30.731249
v -11.401901 16.329998 -29.702429
v -10.156002 14.721298 -22.810080
v -8.948303 14.721298 -23.309978
v -7.860901 14.721298 -23.694939
v -7.860901 16.329998 -24.561180
v -20.022602 14.721298 -24.725010
v -23.311100 14.721298 -8.947720
v -23.696003 14.721298 -7.860920
v -21.289204 14.721298 -23.643318
v -26.211498 14.721298 -7.860920
v -22.497402 14.721298 -22.496929
v -23.644100 14.721298 -21.288521
v -24.725803 14.721298 -20.021919
v -25.739902 14.721298 -18.700520
v -26.683300 14.721298 -17.328018
v -27.553600 14.721298 -15.907820
v -30.007000 14.721298 -7.860920
v -28.348499 14.721298 -14.443920
v -29.065601 14.721298 -12.940620
v -29.702999 14.721298 -11.401720
v -30.258999 14.721298 -9.831619
v -30.791203 14.721298 -7.860920
v -30.732105 14.721298 -8.234520
v -30.821705 14.721298 -7.860920
v -30.821705 15.959000 -7.860920
v -30.732105 16.329998 -8.234520
v -30.821705 16.329998 -7.860920
v -23.696003 16.329998 -7.860920
v -23.311100 16.329998 -8.947720
v -23.696003 14.911198 -7.860920
v -23.696003 14.721298 -7.860920
v -23.696003 15.093899 -7.860920
v -23.696003 15.178497 -7.860920
v -23.696003 15.476398 -7.860920
v -26.211498 16.329998 -7.860920
v -28.361301 16.329998 -7.860920
v -29.263401 16.329998 -7.860920
v -29.263401 15.627197 -7.860920
v -30.821705 16.300499 -7.860920
v -30.821705 16.242001 -7.860920
v -30.821705 16.168900 -7.860920
v -30.821705 16.093899 -7.860920
v -30.821705 15.911499 -7.860920
v -30.821705 15.832500 -7.860920
v -30.821705 15.760899 -7.860920
v -30.821705 15.454800 -7.860920
v -30.821705 15.416798 -7.860920
v -30.821705 15.341400 -7.860920
v -29.263401 14.721199 -7.860920
v -30.821705 15.247200 -7.860920
v -30.821705 15.150398 -7.860920
v -30.821705 14.915398 -7.860920
v -30.821705 14.813599 -7.860920
v -30.821705 14.721199 -7.860920
v -28.361301 14.721199 -7.860920
v -23.696003 16.329998 -7.860920
v -23.696003 16.243000 -7.860920
v -22.810902 16.329998 -10.155420
v -22.407200 16.329998 -11.500519
v -21.624302 16.329998 -12.484020
v -22.248104 16.329998 -11.335220
v -22.814205 16.329998 -10.148319
v -22.556004 16.329998 -10.689619
v -22.248104 14.721298 -11.335220
v -21.624302 14.721298 -12.484020
v -17.328304 14.721298 -26.682440
v -20.941204 14.721298 -13.598619
v -20.941204 16.329998 -13.598619
v -29.702999 16.329998 -11.401720
v -30.258999 16.329998 -9.831619
v -20.941204 16.329998 -13.598619
v -20.200802 16.329998 -14.675720
v -20.200802 14.721298 -14.675720
v -19.405003 16.329998 -15.712719
v -29.065601 16.329998 -12.940620
v -18.556004 16.329998 -16.706820
v -18.556004 14.721298 -16.706820
v -17.656101 16.329998 -17.655121
v -28.348499 16.329998 -14.444019
v -16.707905 16.329998 -18.554821
v -27.553600 16.329998 -15.907820
v -15.713902 16.329998 -19.403721
v -14.704205 16.329998 -20.178719
v -14.676800 16.329998 -20.199718
v -26.683300 16.329998 -17.328018
v -13.599400 16.329998 -20.939919
v -12.484802 16.329998 -21.623219
v -25.739902 16.329998 -18.700520
v -12.032303 16.329998 -21.868809
v -11.336002 16.329998 -22.247240
v -10.156002 16.329998 -22.810080
v -18.701099 14.721298 -25.739269
v -15.908100 14.721298 -27.552710
v -19.405003 14.721298 -15.712719
v -17.656101 14.721298 -17.655121
v -14.444202 14.721298 -28.348259
v -16.707905 14.721298 -18.554821
v -16.182705 14.721298 -19.003319
v -16.013203 14.721298 -19.148121
v -15.713902 14.721298 -19.403721
v -14.676800 14.721298 -20.199718
v -12.940804 14.721298 -29.065439
v -11.401901 14.721298 -29.702429
v -9.831703 14.721298 -30.258299
v -13.599400 14.721298 -20.939919
v -12.484802 14.721298 -21.623119
v -12.138901 14.721298 -21.810921
v -11.336002 14.721298 -22.247240
v -12.820400 14.721298 -21.417219
v -22.810902 14.721298 -10.155420
v -7.860901 14.721298 -25.616199
v -7.860901 16.329998 -23.694939
v -7.860901 14.721298 -23.694939
v -7.860901 15.367397 -30.821037
v -7.860901 14.721298 -30.821037
v -7.860901 16.329998 -30.821037
v -7.860901 15.633900 -30.821037
v -7.860901 15.551399 -30.821037
v -7.860901 15.384998 -30.821037


usemtl Turquoise
f 446 445 444
f 444 465 446
f 451 446 465
f 452 451 465
f 453 452 465
f 454 453 465
f 465 456 454
f 455 454 456
f 457 455 456
f 450 457 456
f 449 450 456
f 448 449 456
f 456 576 448
f 461 448 576
f 458 461 576
f 459 458 576
f 576 575 459
f 460 459 575
f 575 571 460
f 462 460 571
f 463 462 571
f 571 464 463
f 464 447 463
f 445 463 447
f 551 463 445
f 447 464 573
f 573 572 447
f 444 447 572
usemtl Green
f 571 572 573
f 571 574 572
f 579 572 574
usemtl Turquoise
f 579 574 575
f 578 579 575
f 577 578 575
usemtl Green
f 577 572 578
f 576 572 577
usemtl Turquoise
f 572 576 465
usemtl Green
f 578 572 579
usemtl Turquoise
f 571 573 464
f 463 551 462
f 462 551 568
f 462 568 564
f 568 567 564
f 566 564 567
f 567 549 566
f 547 566 549
f 547 549 548
f 548 545 547
f 545 546 547
f 546 565 547
f 569 547 565
f 565 566 569
f 565 546 561
f 561 563 565
f 563 564 565
f 461 564 563
f 563 561 562
f 448 563 562
f 561 556 562
f 449 562 556
f 556 553 449
f 553 556 555
f 553 555 537
f 537 554 553
f 526 553 554
f 533 526 554
f 554 534 533
f 532 533 534
f 535 532 534
f 536 535 534
f 534 537 536
f 536 537 538
f 536 538 539
f 539 538 540
f 540 541 539
f 541 476 539
f 539 476 478
f 478 479 539
f 479 535 539
f 535 479 529
f 529 479 480
f 529 480 530
f 529 530 520
f 528 529 520
f 520 525 528
f 527 528 525
f 525 526 527
f 524 526 525
f 525 521 524
f 523 524 521
f 521 522 523
f 518 523 522
f 522 519 518
f 518 519 486
f 489 518 486
f 489 486 488
f 488 490 489
f 490 468 489
f 467 489 468
f 466 467 468
f 469 466 468
f 468 470 469
f 471 469 470
f 472 471 470
f 473 472 470
f 470 515 473
f 474 473 515
f 475 474 515
f 476 475 515
f 515 477 476
f 477 515 509
f 509 514 477
f 482 477 514
f 484 482 514
f 514 513 484
f 513 512 484
f 512 511 484
f 511 510 484
f 510 508 484
f 485 484 508
f 508 507 485
f 507 506 485
f 506 505 485
f 505 504 485
f 504 503 485
f 503 502 485
f 502 501 485
f 487 485 501
f 501 500 487
f 500 499 487
usemtl Green
f 499 498 487
f 497 487 498
f 498 496 497
usemtl Turquoise
f 497 496 488
f 496 495 488
f 495 516 488
f 516 517 488
f 517 494 488
usemtl Green
f 517 495 494
f 494 495 493
usemtl Turquoise
f 494 493 490
f 493 492 490
f 492 491 490
usemtl Green
f 492 496 491
f 470 491 496
f 496 492 493
f 516 495 517
f 495 496 493
f 496 498 515
usemtl Turquoise
f 488 487 497
usemtl Green
f 500 498 499
f 501 498 500
usemtl Turquoise
f 485 487 486
f 486 483 485
f 486 481 483
f 483 481 482
f 530 481 486
usemtl Green
f 502 498 501
f 503 498 502
f 504 498 503
f 505 498 504
f 506 498 505
f 498 506 509
f 507 509 506
f 508 509 507
usemtl Turquoise
f 484 485 483
usemtl Green
f 510 509 508
f 511 509 510
f 512 509 511
f 513 509 512
usemtl Turquoise
f 482 484 483
f 477 482 481
f 481 480 477
usemtl Green
f 514 509 513
f 509 515 498
usemtl Turquoise
f 474 475 548
f 548 473 474
f 473 548 446
f 446 548 550
f 446 550 551
usemtl Green
f 515 470 496
usemtl Turquoise
f 446 472 473
f 471 472 452
f 452 469 471
f 470 468 491
f 453 466 469
f 466 552 467
f 570 467 552
f 552 524 570
f 570 518 467
f 454 552 466
f 468 490 491
f 490 488 494
f 487 488 486
f 489 467 518
f 520 486 519
f 521 520 519
f 518 570 523
f 519 522 521
f 524 523 570
f 526 524 552
f 526 552 457
f 528 527 531
f 531 527 532
f 532 529 531
f 521 525 520
f 531 529 528
f 530 486 520
f 530 480 481
f 480 479 477
f 479 478 477
f 478 476 477
f 541 475 476
f 545 475 541
f 545 541 544
f 541 543 544
f 543 561 544
f 561 543 560
f 542 560 543
f 560 542 559
f 560 559 556
f 558 556 559
f 557 556 558
f 558 542 557
f 540 557 542
f 559 542 558
f 542 543 541
f 540 542 541
f 538 557 540
f 557 538 555
f 539 535 536
f 535 529 532
f 533 532 527
f 533 527 526
f 457 553 526
f 537 534 554
f 555 538 537
f 557 555 556
f 556 561 560
f 544 561 546
f 545 544 546
f 475 545 548
f 548 549 550
f 566 547 569
f 549 567 550
f 566 565 564
f 568 550 567
f 550 568 551
f 460 462 564
f 458 460 564
usemtl Green
f 574 571 575
usemtl Turquoise
f 575 576 577
f 459 460 458
f 458 564 461
f 461 563 448
f 448 562 449
f 553 450 449
f 450 553 457
f 552 455 457
f 455 552 454
f 456 465 576
f 454 466 453
f 453 469 452
f 472 451 452
f 451 472 446
f 465 444 572
f 447 444 445
f 446 551 445
